<svg width="1400" height="552" viewBox="0 0 1400 552" fill="none" xmlns="http://www.w3.org/2000/svg">
<rect width="1400" height="552" fill="#00BDC9"/>
<g clip-path="url(#clip0_78_645)">
<path d="M531.24 134.455H401.23V221.455H531.24V134.455Z" fill="white"/>
<path d="M531.24 221.455C531.24 221.455 531.223 220.909 531.223 219.877C531.223 218.827 531.214 217.292 531.206 215.287C531.197 211.26 531.18 205.355 531.155 197.788C531.129 182.669 531.095 160.947 531.061 134.455L531.249 134.643C495.421 134.66 450.229 134.668 401.256 134.685H401.248L401.478 134.455C401.478 165.452 401.461 194.921 401.461 221.455L401.248 221.242C439.516 221.285 471.989 221.319 494.909 221.344C506.373 221.37 515.448 221.387 521.671 221.404C524.778 221.413 527.168 221.421 528.79 221.43C529.592 221.43 530.207 221.438 530.625 221.438C531.035 221.438 531.257 221.447 531.257 221.447C531.257 221.447 531.061 221.455 530.651 221.455C530.233 221.455 529.627 221.455 528.841 221.464C527.228 221.464 524.855 221.481 521.765 221.489C515.559 221.506 506.502 221.523 495.054 221.549C472.1 221.575 439.585 221.609 401.256 221.651H401.017V221.438C401.017 194.921 401 165.452 401 134.455V134.225H401.23H401.239C450.221 134.242 495.413 134.259 531.231 134.267H531.419V134.455C531.377 160.989 531.342 182.763 531.325 197.899C531.308 205.441 531.291 211.336 531.274 215.355C531.266 217.351 531.257 218.87 531.257 219.911C531.257 220.935 531.24 221.455 531.24 221.455Z" fill="#E0E0E0"/>
<path d="M401.23 142.219C401.23 142.091 430.314 141.989 466.176 141.989C502.037 141.989 531.129 142.091 531.129 142.219C531.129 142.347 502.054 142.449 466.176 142.449C430.297 142.449 401.23 142.347 401.23 142.219Z" fill="#E0E0E0"/>
<g opacity="0.3">
<path d="M406.361 138.303C406.361 138.875 405.891 139.344 405.319 139.344C404.747 139.344 404.278 138.875 404.278 138.303C404.278 137.731 404.747 137.262 405.319 137.262C405.891 137.262 406.361 137.731 406.361 138.303Z" fill="#E0E0E0"/>
</g>
<g opacity="0.3">
<path d="M409.929 138.303C409.929 138.875 409.46 139.344 408.888 139.344C408.316 139.344 407.846 138.875 407.846 138.303C407.846 137.731 408.316 137.262 408.888 137.262C409.46 137.262 409.929 137.731 409.929 138.303Z" fill="#E0E0E0"/>
</g>
<g opacity="0.3">
<path d="M413.455 138.303C413.455 138.875 412.985 139.344 412.413 139.344C411.841 139.344 411.372 138.875 411.372 138.303C411.372 137.731 411.841 137.262 412.413 137.262C412.985 137.262 413.455 137.731 413.455 138.303Z" fill="#E0E0E0"/>
</g>
<path d="M447.088 151.289H412.413V185.945H447.088V151.289Z" fill="#E0E0E0"/>
<path d="M513.416 161.092C513.416 161.22 499.894 161.322 483.214 161.322C466.534 161.322 453.004 161.22 453.004 161.092C453.004 160.964 466.525 160.861 483.214 160.861C499.903 160.861 513.416 160.964 513.416 161.092Z" fill="#E0E0E0"/>
<path d="M513.416 167.533C513.416 167.661 499.894 167.764 483.214 167.764C466.534 167.764 453.004 167.661 453.004 167.533C453.004 167.405 466.525 167.303 483.214 167.303C499.903 167.303 513.416 167.405 513.416 167.533Z" fill="#E0E0E0"/>
<path d="M513.416 173.975C513.416 174.103 499.894 174.205 483.214 174.205C466.534 174.205 453.004 174.103 453.004 173.975C453.004 173.847 466.525 173.745 483.214 173.745C499.903 173.745 513.416 173.847 513.416 173.975Z" fill="#E0E0E0"/>
<path d="M488.703 180.408C488.703 180.408 488.199 180.468 487.303 180.502C486.313 180.519 485.032 180.545 483.479 180.579C480.252 180.621 475.788 180.647 470.853 180.647C465.919 180.647 461.455 180.621 458.228 180.579C456.674 180.545 455.385 180.528 454.404 180.502C453.499 180.476 453.004 180.442 453.004 180.408C453.004 180.374 453.507 180.348 454.404 180.314C455.394 180.297 456.674 180.272 458.228 180.237C461.455 180.195 465.919 180.169 470.853 180.169C475.788 180.169 480.244 180.195 483.479 180.237C485.032 180.272 486.321 180.289 487.303 180.314C488.208 180.34 488.703 180.374 488.703 180.408Z" fill="#E0E0E0"/>
<path d="M430.877 197.643H414.581V213.93H430.877V197.643Z" fill="#E0E0E0"/>
<path d="M460.431 197.643H444.134V213.93H460.431V197.643Z" fill="#E0E0E0"/>
<path d="M489.992 197.643H473.696V213.93H489.992V197.643Z" fill="#E0E0E0"/>
<path d="M519.545 197.643H503.249V213.93H519.545V197.643Z" fill="#E0E0E0"/>
<path d="M662.411 92.1792H550.421V137.646H662.411V92.1792Z" fill="white"/>
<path d="M662.411 137.637C662.411 137.637 662.411 137.356 662.402 136.827C662.402 136.289 662.402 135.496 662.385 134.472C662.385 132.399 662.368 129.353 662.351 125.428C662.334 117.579 662.308 106.231 662.282 92.1792L662.411 92.3072C633.925 92.3242 594.264 92.3413 550.43 92.3583L550.609 92.1792C550.609 108.1 550.609 123.466 550.609 137.646L550.438 137.475C582.885 137.509 610.859 137.535 630.732 137.552C640.677 137.569 648.59 137.586 654.028 137.603C656.742 137.612 658.834 137.62 660.259 137.629C660.968 137.629 661.506 137.629 661.873 137.637C662.24 137.637 662.428 137.646 662.428 137.646C662.428 137.646 662.248 137.646 661.898 137.654C661.531 137.654 661.002 137.654 660.302 137.663C658.885 137.663 656.802 137.672 654.105 137.689C648.675 137.697 640.779 137.714 630.851 137.74C610.953 137.757 582.937 137.791 550.447 137.817H550.276V137.646C550.276 123.474 550.276 108.1 550.276 92.1792V92H550.464C594.299 92.0171 633.959 92.0427 662.445 92.0512H662.573V92.1792C662.547 106.257 662.522 117.639 662.504 125.496C662.487 129.413 662.479 132.45 662.47 134.515C662.47 135.539 662.462 136.315 662.453 136.852C662.453 137.381 662.436 137.637 662.436 137.637H662.411Z" fill="#E0E0E0"/>
<path d="M550.532 98.3051C550.532 98.2113 575.561 98.1259 606.437 98.1259C637.313 98.1259 662.342 98.2027 662.342 98.3051C662.342 98.4075 637.313 98.4843 606.437 98.4843C575.561 98.4843 550.532 98.4075 550.532 98.3051Z" fill="#E0E0E0"/>
<g opacity="0.3">
<path d="M555.227 95.5664C555.227 96.0186 554.86 96.3769 554.416 96.3769C553.973 96.3769 553.605 96.01 553.605 95.5664C553.605 95.1227 553.973 94.7558 554.416 94.7558C554.86 94.7558 555.227 95.1227 555.227 95.5664Z" fill="#EBEBEB"/>
</g>
<g opacity="0.3">
<path d="M558.01 95.5664C558.01 96.0186 557.643 96.3769 557.199 96.3769C556.755 96.3769 556.388 96.01 556.388 95.5664C556.388 95.1227 556.755 94.7558 557.199 94.7558C557.643 94.7558 558.01 95.1227 558.01 95.5664Z" fill="#EBEBEB"/>
</g>
<g opacity="0.3">
<path d="M559.939 96.3769C560.387 96.3769 560.75 96.014 560.75 95.5664C560.75 95.1187 560.387 94.7558 559.939 94.7558C559.492 94.7558 559.129 95.1187 559.129 95.5664C559.129 96.014 559.492 96.3769 559.939 96.3769Z" fill="#EBEBEB"/>
</g>
<path d="M586.991 105.702H559.939V132.74H586.991V105.702Z" fill="#E0E0E0"/>
<path d="M654.668 112.946C654.668 113.04 640.745 113.125 623.578 113.125C606.412 113.125 592.489 113.048 592.489 112.946C592.489 112.844 606.403 112.767 623.578 112.767C640.754 112.767 654.668 112.844 654.668 112.946Z" fill="#E0E0E0"/>
<path d="M654.668 118.449C654.668 118.543 640.745 118.628 623.578 118.628C606.412 118.628 592.489 118.551 592.489 118.449C592.489 118.347 606.403 118.27 623.578 118.27C640.754 118.27 654.668 118.347 654.668 118.449Z" fill="#E0E0E0"/>
<path d="M632.516 123.961C632.516 123.961 632.379 123.986 632.106 123.995C631.799 124.003 631.415 124.012 630.937 124.029C629.878 124.046 628.427 124.063 626.652 124.089C622.989 124.106 618.004 124.123 612.498 124.14C606.992 124.123 602.007 124.097 598.345 124.089C596.569 124.063 595.118 124.046 594.059 124.029C593.581 124.012 593.197 124.003 592.89 123.995C592.625 123.986 592.48 123.969 592.48 123.961C592.48 123.952 592.617 123.935 592.89 123.927C593.197 123.918 593.581 123.909 594.059 123.892C595.118 123.875 596.569 123.858 598.345 123.833C602.007 123.816 606.992 123.799 612.498 123.781C618.004 123.799 622.981 123.824 626.652 123.833C628.427 123.858 629.878 123.875 630.937 123.892C631.415 123.909 631.799 123.918 632.106 123.927C632.371 123.935 632.516 123.952 632.516 123.961Z" fill="#E0E0E0"/>
<path d="M964.574 152.85C964.574 152.85 964.779 152.577 965.206 152.133C965.701 151.63 966.315 151.015 967.049 150.282C968.62 148.737 970.797 146.622 973.23 144.301L973.281 144.25V144.565C970.831 142.287 968.637 140.214 967.058 138.704C966.324 137.987 965.709 137.381 965.206 136.895C964.779 136.46 964.548 136.213 964.565 136.187C964.582 136.161 964.856 136.375 965.317 136.776C965.846 137.236 966.495 137.808 967.263 138.491C968.893 139.95 971.121 141.989 973.571 144.258L973.742 144.412L973.58 144.565L973.529 144.617C971.096 146.937 968.876 149.019 967.263 150.504C966.503 151.195 965.854 151.783 965.325 152.253C964.864 152.662 964.599 152.875 964.574 152.85Z" fill="#E0E0E0"/>
<path d="M945.666 136.178C945.666 136.178 945.461 136.451 945.034 136.895C944.539 137.399 943.924 138.013 943.19 138.747C941.619 140.291 939.443 142.407 937.01 144.727L936.959 144.779V144.463C939.409 146.741 941.602 148.814 943.182 150.324C943.916 151.041 944.53 151.647 945.034 152.133C945.461 152.568 945.691 152.816 945.674 152.841C945.657 152.867 945.384 152.654 944.923 152.261C944.394 151.8 943.745 151.229 942.977 150.546C941.346 149.087 939.118 147.048 936.668 144.779L936.498 144.625L936.66 144.471L936.711 144.42C939.144 142.1 941.363 140.018 942.977 138.533C943.737 137.842 944.385 137.253 944.915 136.784C945.375 136.375 945.64 136.161 945.666 136.187V136.178Z" fill="#E0E0E0"/>
<path d="M950.514 156.783C950.403 156.74 952.392 151.169 954.945 144.326C957.506 137.492 959.665 131.981 959.776 132.023C959.887 132.066 957.907 137.637 955.346 144.48C952.785 151.314 950.625 156.826 950.514 156.783Z" fill="#E0E0E0"/>
<path d="M986.06 168.711C986.06 168.711 986.043 168.387 986.043 167.781C986.043 167.158 986.034 166.262 986.026 165.102C986.017 162.747 986 159.317 985.983 154.94C985.958 146.195 985.932 133.696 985.889 118.628L986.069 118.807C968.475 118.816 947.322 118.833 924.572 118.842L924.786 118.628C924.786 136.733 924.769 153.831 924.76 168.719L924.572 168.532C942.832 168.574 958.18 168.608 968.987 168.625C974.391 168.651 978.65 168.668 981.578 168.677C983.03 168.685 984.148 168.694 984.916 168.702C985.292 168.702 985.573 168.702 985.778 168.711C985.975 168.711 986.077 168.719 986.077 168.719C986.077 168.719 985.983 168.719 985.795 168.728C985.591 168.728 985.317 168.728 984.95 168.736C984.191 168.736 983.081 168.753 981.647 168.762C978.727 168.77 974.485 168.788 969.098 168.813C958.265 168.839 942.874 168.873 924.564 168.907H924.376V168.719C924.376 153.84 924.359 136.742 924.35 118.628V118.415H924.572C947.322 118.432 968.475 118.441 986.069 118.449H986.248V118.628C986.214 133.747 986.18 146.28 986.154 155.051C986.137 159.402 986.12 162.824 986.111 165.17C986.103 166.322 986.094 167.209 986.094 167.815C986.094 168.412 986.077 168.711 986.077 168.711H986.06Z" fill="#E0E0E0"/>
<path d="M986.538 126.051C986.538 126.17 972.658 126.264 955.534 126.264C938.41 126.264 924.53 126.17 924.53 126.051C924.53 125.932 938.41 125.838 955.534 125.838C972.658 125.838 986.538 125.932 986.538 126.051Z" fill="#E0E0E0"/>
<path d="M929.575 122.399C929.575 122.86 929.207 123.227 928.747 123.227C928.286 123.227 927.919 122.852 927.919 122.399C927.919 121.947 928.286 121.572 928.747 121.572C929.207 121.572 929.575 121.947 929.575 122.399Z" fill="#E0E0E0"/>
<path d="M932.588 122.399C932.588 122.86 932.221 123.227 931.76 123.227C931.299 123.227 930.932 122.852 930.932 122.399C930.932 121.947 931.299 121.572 931.76 121.572C932.221 121.572 932.588 121.947 932.588 122.399Z" fill="#E0E0E0"/>
<path d="M935.61 122.399C935.61 122.86 935.243 123.227 934.782 123.227C934.321 123.227 933.954 122.852 933.954 122.399C933.954 121.947 934.321 121.572 934.782 121.572C935.243 121.572 935.61 121.947 935.61 122.399Z" fill="#E0E0E0"/>
<path d="M971.89 388.972C975.441 387.137 979.632 386.898 983.576 387.555C985.693 387.905 987.904 388.536 989.347 390.132C990.789 391.727 991.062 394.526 989.406 395.891C988.425 396.701 987.042 396.829 985.77 396.812C982.68 396.778 979.257 396.232 976.79 398.092C975.381 399.15 974.442 400.916 972.76 401.437C971.113 401.949 969.252 400.976 968.381 399.491C967.51 398.007 967.476 396.147 967.886 394.475C967.886 394.475 968.313 390.823 971.898 388.98L971.89 388.972Z" fill="#EBEBEB"/>
<path d="M963.746 373.256C965.923 376.361 970.14 375.329 972.103 373.435C974.058 371.541 974.886 368.793 975.646 366.183C977.37 360.202 979.103 353.931 977.822 347.839C977.438 346.022 976.755 344.204 975.475 342.856C974.194 341.508 972.231 340.706 970.43 341.176C968.304 341.739 966.973 343.82 966.017 345.808C963.208 351.636 961.714 358.103 961.697 364.57C961.689 367.59 962.047 370.764 963.746 373.256Z" fill="#EBEBEB"/>
<path d="M957.779 377.709C960.135 374.911 960.587 370.824 959.537 367.317C958.487 363.811 956.114 360.825 953.383 358.393C950.182 355.535 946.408 353.316 942.362 351.892C940.766 351.329 939.084 350.893 937.402 351.047C935.721 351.209 934.031 352.071 933.245 353.564C932.084 355.774 933.194 358.461 934.398 360.645C936.515 364.502 938.939 368.188 941.637 371.669C943.805 374.467 946.289 377.223 949.601 378.486C952.905 379.748 956.345 379.603 958.095 377.308" fill="#EBEBEB"/>
<path d="M963.601 420.053C963.601 420.053 963.703 419.55 963.797 418.646C963.899 417.622 964.019 416.333 964.173 414.798C964.352 413.177 964.591 411.248 965.035 409.158C965.487 407.068 966.187 404.798 967.084 402.495C968.014 400.208 969.158 398.126 970.49 396.471C971.813 394.799 973.349 393.596 974.792 392.896C976.235 392.188 977.524 391.898 978.411 391.77C979.308 391.676 979.811 391.608 979.82 391.565C979.82 391.523 979.316 391.523 978.394 391.54C977.481 391.599 976.132 391.83 974.613 392.521C973.093 393.195 971.463 394.423 970.071 396.13C968.671 397.828 967.493 399.952 966.546 402.281C965.632 404.619 964.941 406.914 964.506 409.047C964.079 411.18 963.882 413.125 963.754 414.764C963.635 416.393 963.584 417.724 963.567 418.637C963.55 419.55 963.558 420.062 963.592 420.062L963.601 420.053Z" fill="#E0E0E0"/>
<path d="M963.865 417.093C963.865 417.093 963.899 416.862 963.899 416.436C963.899 415.941 963.899 415.327 963.899 414.567C963.899 412.946 963.9 410.591 963.985 407.691C964.13 401.889 964.625 395.644 965.59 386.839C966.503 378.563 967.732 368.93 969.021 362.668C969.303 361.243 969.576 359.963 969.841 358.837C970.088 357.71 970.31 356.738 970.515 355.953C970.694 355.211 970.84 354.613 970.951 354.136C971.044 353.718 971.087 353.496 971.062 353.487C971.044 353.487 970.968 353.692 970.831 354.101C970.686 354.571 970.507 355.168 970.285 355.893C970.046 356.67 969.798 357.634 969.516 358.751C969.226 359.869 968.91 361.149 968.612 362.574C967.331 368.247 965.974 376.182 965.001 385.004C964.036 393.826 963.601 401.855 963.558 407.674C963.524 410.583 963.584 412.938 963.66 414.559C963.703 415.318 963.746 415.941 963.771 416.427C963.806 416.854 963.831 417.076 963.848 417.076L963.865 417.093Z" fill="#E0E0E0"/>
<path d="M963.899 401.599C963.899 401.599 963.934 400.899 963.882 399.645C963.814 398.391 963.635 396.574 963.285 394.355C962.909 392.137 962.389 389.501 961.561 386.642C961.202 385.337 960.365 382.197 958.334 377.513C955.653 371.165 952.017 365.978 948.858 362.761C948.116 361.908 947.288 361.294 946.63 360.688C946.289 360.398 945.99 360.108 945.674 359.886C945.367 359.673 945.077 359.477 944.812 359.289C943.771 358.581 943.19 358.205 943.165 358.239C943.071 358.367 945.495 359.792 948.56 363.051C951.607 366.302 955.141 371.455 957.796 377.743C959.273 381.156 960.306 384.202 961.04 386.787C961.885 389.62 962.448 392.231 962.875 394.423C963.276 396.625 963.515 398.425 963.652 399.662C963.771 400.908 963.848 401.599 963.891 401.599H963.899Z" fill="#E0E0E0"/>
<path d="M948.918 428.927L950.472 450.197H977.805L979.359 428.927H948.918Z" fill="#E0E0E0"/>
<path d="M982.62 420.548H946.28V428.927H982.62V420.548Z" fill="#E0E0E0"/>
<path d="M946.28 449.378V451.707H947.988H982.022V449.378H946.28Z" fill="#EBEBEB"/>
<path d="M949.661 455.794L947.988 451.707H980.716L978.77 455.794H949.661Z" fill="#E0E0E0"/>
<path d="M978.855 435.88C978.855 435.88 978.821 435.948 978.727 436.076C978.616 436.221 978.488 436.401 978.317 436.614C977.933 437.109 977.396 437.791 976.721 438.653L976.653 438.747L976.585 438.653C975.586 437.271 974.246 435.419 972.675 433.244H972.897C971.736 434.89 970.438 436.725 969.047 438.696L968.927 438.866L968.791 438.704C967.365 437.015 965.829 435.181 964.224 433.269H964.488C964.412 433.363 964.326 433.474 964.241 433.585C962.824 435.36 961.45 437.075 960.161 438.704L960.024 438.875L959.896 438.696C958.513 436.733 957.216 434.899 956.046 433.244H956.268C954.373 435.419 952.759 437.254 951.522 438.662L951.436 438.755L951.368 438.645C950.745 437.595 950.241 436.759 949.883 436.153C949.729 435.88 949.601 435.667 949.499 435.488C949.413 435.334 949.379 435.257 949.379 435.249C949.379 435.249 949.439 435.317 949.541 435.462C949.652 435.633 949.789 435.838 949.96 436.102C950.335 436.699 950.864 437.518 951.522 438.551H951.377C952.589 437.117 954.177 435.257 956.046 433.065L956.165 432.928L956.268 433.073C957.446 434.72 958.761 436.546 960.152 438.499H959.887C961.185 436.861 962.551 435.146 963.959 433.363C964.045 433.252 964.13 433.15 964.207 433.048L964.335 432.885L964.471 433.048C966.068 434.959 967.613 436.793 969.03 438.491H968.774C970.182 436.546 971.488 434.72 972.666 433.082L972.777 432.92L972.888 433.082C974.425 435.283 975.74 437.151 976.721 438.551H976.585C977.285 437.706 977.839 437.049 978.241 436.563C978.42 436.358 978.565 436.187 978.685 436.051C978.787 435.94 978.838 435.88 978.847 435.889L978.855 435.88Z" fill="#F5F5F5"/>
<path d="M979.743 428.79C979.743 428.884 972.897 428.961 964.446 428.961C955.995 428.961 949.149 428.884 949.149 428.79C949.149 428.696 955.995 428.619 964.446 428.619C972.897 428.619 979.743 428.696 979.743 428.79Z" fill="#F5F5F5"/>
<path d="M981.126 451.937C981.126 452.031 973.682 452.108 964.506 452.108C955.329 452.108 947.877 452.031 947.877 451.937C947.877 451.843 955.32 451.767 964.506 451.767C973.691 451.767 981.126 451.843 981.126 451.937Z" fill="#F5F5F5"/>
<path d="M473.833 155.358H909.949C913.125 155.358 915.703 157.935 915.703 161.109V439.353C915.703 446.212 910.129 451.784 903.265 451.784H479.655C472.791 451.784 467.217 446.212 467.217 439.353V161.971C467.217 158.319 470.179 155.358 473.833 155.358Z" fill="#455A64"/>
<path d="M448.462 429.857H934.364V444.088C934.364 450.547 929.114 455.794 922.652 455.794H460.174C453.712 455.794 448.462 450.547 448.462 444.088V429.857Z" fill="#455A64"/>
<path d="M902.403 167.132H479.253V417.46H902.403V167.132Z" fill="#E0E0E0"/>
<path d="M647.25 429.857L653.277 439.447H738.12L743.72 429.857H647.25Z" fill="#263238"/>
<path d="M890.87 181.637H491.81V417.46H890.87V181.637Z" fill="#263238"/>
<path d="M522.43 410.54C522.226 410.54 522.055 360.313 522.055 298.371C522.055 236.429 522.226 186.193 522.43 186.193C522.635 186.193 522.806 236.412 522.806 298.371C522.806 360.33 522.635 410.54 522.43 410.54Z" fill="#E0E0E0"/>
<path d="M514.381 206.524C514.381 206.729 511.478 206.9 507.902 206.9C504.325 206.9 501.422 206.729 501.422 206.524C501.422 206.32 504.325 206.149 507.902 206.149C511.478 206.149 514.381 206.32 514.381 206.524Z" fill="#E0E0E0"/>
<path d="M514.876 193.795C514.876 193.999 511.973 194.17 508.397 194.17C504.82 194.17 501.917 193.999 501.917 193.795C501.917 193.59 504.82 193.419 508.397 193.419C511.973 193.419 514.876 193.59 514.876 193.795Z" fill="#E0E0E0"/>
<path d="M514.381 220.252C514.381 220.457 511.478 220.628 507.902 220.628C504.325 220.628 501.422 220.457 501.422 220.252C501.422 220.048 504.325 219.877 507.902 219.877C511.478 219.877 514.381 220.048 514.381 220.252Z" fill="#E0E0E0"/>
<path d="M514.381 233.972C514.381 234.176 511.478 234.347 507.902 234.347C504.325 234.347 501.422 234.176 501.422 233.972C501.422 233.767 504.325 233.596 507.902 233.596C511.478 233.596 514.381 233.767 514.381 233.972Z" fill="#E0E0E0"/>
<path d="M514.381 247.691C514.381 247.896 511.478 248.066 507.902 248.066C504.325 248.066 501.422 247.896 501.422 247.691C501.422 247.486 504.325 247.316 507.902 247.316C511.478 247.316 514.381 247.486 514.381 247.691Z" fill="#E0E0E0"/>
<path d="M514.381 261.41C514.381 261.615 511.478 261.786 507.902 261.786C504.325 261.786 501.422 261.615 501.422 261.41C501.422 261.206 504.325 261.035 507.902 261.035C511.478 261.035 514.381 261.206 514.381 261.41Z" fill="#E0E0E0"/>
<path d="M514.381 275.138C514.381 275.343 511.478 275.514 507.902 275.514C504.325 275.514 501.422 275.343 501.422 275.138C501.422 274.934 504.325 274.763 507.902 274.763C511.478 274.763 514.381 274.934 514.381 275.138Z" fill="#E0E0E0"/>
<path d="M514.381 288.858C514.381 289.062 511.478 289.233 507.902 289.233C504.325 289.233 501.422 289.062 501.422 288.858C501.422 288.653 504.325 288.482 507.902 288.482C511.478 288.482 514.381 288.653 514.381 288.858Z" fill="#E0E0E0"/>
<path d="M514.381 302.577C514.381 302.782 511.478 302.952 507.902 302.952C504.325 302.952 501.422 302.782 501.422 302.577C501.422 302.372 504.325 302.202 507.902 302.202C511.478 302.202 514.381 302.372 514.381 302.577Z" fill="#E0E0E0"/>
<path d="M514.381 316.296C514.381 316.501 511.478 316.672 507.902 316.672C504.325 316.672 501.422 316.501 501.422 316.296C501.422 316.092 504.325 315.921 507.902 315.921C511.478 315.921 514.381 316.092 514.381 316.296Z" fill="#E0E0E0"/>
<path d="M514.381 330.024C514.381 330.229 511.478 330.4 507.902 330.4C504.325 330.4 501.422 330.229 501.422 330.024C501.422 329.82 504.325 329.649 507.902 329.649C511.478 329.649 514.381 329.82 514.381 330.024Z" fill="#E0E0E0"/>
<path d="M514.381 343.744C514.381 343.948 511.478 344.119 507.902 344.119C504.325 344.119 501.422 343.948 501.422 343.744C501.422 343.539 504.325 343.368 507.902 343.368C511.478 343.368 514.381 343.539 514.381 343.744Z" fill="#E0E0E0"/>
<path d="M514.381 357.463C514.381 357.668 511.478 357.838 507.902 357.838C504.325 357.838 501.422 357.668 501.422 357.463C501.422 357.258 504.325 357.088 507.902 357.088C511.478 357.088 514.381 357.258 514.381 357.463Z" fill="#E0E0E0"/>
<path d="M514.381 371.182C514.381 371.387 511.478 371.558 507.902 371.558C504.325 371.558 501.422 371.387 501.422 371.182C501.422 370.978 504.325 370.807 507.902 370.807C511.478 370.807 514.381 370.978 514.381 371.182Z" fill="#E0E0E0"/>
<path d="M514.381 384.91C514.381 385.115 511.478 385.286 507.902 385.286C504.325 385.286 501.422 385.115 501.422 384.91C501.422 384.706 504.325 384.535 507.902 384.535C511.478 384.535 514.381 384.706 514.381 384.91Z" fill="#E0E0E0"/>
<path d="M514.381 398.63C514.381 398.834 511.478 399.005 507.902 399.005C504.325 399.005 501.422 398.834 501.422 398.63C501.422 398.425 504.325 398.254 507.902 398.254C511.478 398.254 514.381 398.425 514.381 398.63Z" fill="#E0E0E0"/>
<path d="M566.342 205.722C566.342 205.927 558.813 206.098 549.516 206.098C540.22 206.098 532.691 205.927 532.691 205.722C532.691 205.518 540.22 205.347 549.516 205.347C558.813 205.347 566.342 205.518 566.342 205.722Z" fill="#04959E"/>
<path d="M566.342 398.63C566.342 398.834 558.813 399.005 549.516 399.005C540.22 399.005 532.691 398.834 532.691 398.63C532.691 398.425 540.22 398.254 549.516 398.254C558.813 398.254 566.342 398.425 566.342 398.63Z" fill="#04959E"/>
<path d="M613.198 233.972C613.198 234.176 599.105 234.347 581.724 234.347C564.344 234.347 550.251 234.176 550.251 233.972C550.251 233.767 564.344 233.596 581.724 233.596C599.105 233.596 613.198 233.767 613.198 233.972Z" fill="#04959E"/>
<path d="M685.988 233.972C685.988 234.176 671.894 234.347 654.514 234.347C637.134 234.347 623.041 234.176 623.041 233.972C623.041 233.767 637.134 233.596 654.514 233.596C671.894 233.596 685.988 233.767 685.988 233.972Z" fill="#E0E0E0"/>
<path d="M658.168 247.691C658.168 247.896 637.399 248.066 611.781 248.066C586.163 248.066 565.394 247.896 565.394 247.691C565.394 247.486 586.163 247.316 611.781 247.316C637.399 247.316 658.168 247.486 658.168 247.691Z" fill="#E0E0E0"/>
<path d="M658.168 261.41C658.168 261.615 637.399 261.786 611.781 261.786C586.163 261.786 565.394 261.615 565.394 261.41C565.394 261.206 586.163 261.035 611.781 261.035C637.399 261.035 658.168 261.206 658.168 261.41Z" fill="#E0E0E0"/>
<path d="M722.029 302.577C722.029 302.782 701.26 302.952 675.642 302.952C650.024 302.952 629.255 302.782 629.255 302.577C629.255 302.372 650.024 302.202 675.642 302.202C701.26 302.202 722.029 302.372 722.029 302.577Z" fill="#E0E0E0"/>
<path d="M694.473 275.138C694.473 275.343 673.704 275.514 648.086 275.514C622.469 275.514 601.7 275.343 601.7 275.138C601.7 274.934 622.469 274.763 648.086 274.763C673.704 274.763 694.473 274.934 694.473 275.138Z" fill="#E0E0E0"/>
<path d="M807.845 275.138C807.845 275.343 787.076 275.514 761.459 275.514C735.841 275.514 715.072 275.343 715.072 275.138C715.072 274.934 735.841 274.763 761.459 274.763C787.076 274.763 807.845 274.934 807.845 275.138Z" fill="#E0E0E0"/>
<path d="M768.416 247.691C768.416 247.896 747.647 248.066 722.029 248.066C696.411 248.066 675.642 247.896 675.642 247.691C675.642 247.486 696.411 247.316 722.029 247.316C747.647 247.316 768.416 247.486 768.416 247.691Z" fill="#FAFAFA"/>
<path d="M832.507 302.577C832.507 302.782 811.738 302.952 786.12 302.952C760.502 302.952 739.733 302.782 739.733 302.577C739.733 302.372 760.502 302.202 786.12 302.202C811.738 302.202 832.507 302.372 832.507 302.577Z" fill="#FAFAFA"/>
<path d="M819.702 261.41C819.702 261.615 787.452 261.786 747.672 261.786C707.893 261.786 675.642 261.615 675.642 261.41C675.642 261.206 707.884 261.035 747.672 261.035C787.46 261.035 819.702 261.206 819.702 261.41Z" fill="#455A64"/>
<path d="M566.342 220.252C566.342 220.457 558.813 220.628 549.516 220.628C540.22 220.628 532.691 220.457 532.691 220.252C532.691 220.048 540.22 219.877 549.516 219.877C558.813 219.877 566.342 220.048 566.342 220.252Z" fill="#FAFAFA"/>
<path d="M566.342 384.91C566.342 385.115 558.813 385.286 549.516 385.286C540.22 385.286 532.691 385.115 532.691 384.91C532.691 384.706 540.22 384.535 549.516 384.535C558.813 384.535 566.342 384.706 566.342 384.91Z" fill="#FAFAFA"/>
<path d="M583.013 275.138C583.013 275.343 575.484 275.514 566.188 275.514C556.892 275.514 549.363 275.343 549.363 275.138C549.363 274.934 556.892 274.763 566.188 274.763C575.484 274.763 583.013 274.934 583.013 275.138Z" fill="#FAFAFA"/>
<path d="M852.67 275.138C852.67 275.343 845.141 275.514 835.845 275.514C826.549 275.514 819.02 275.343 819.02 275.138C819.02 274.934 826.549 274.763 835.845 274.763C845.141 274.763 852.67 274.934 852.67 275.138Z" fill="#04959E"/>
<path d="M613.198 329.939C613.198 330.144 599.105 330.314 581.724 330.314C564.344 330.314 550.251 330.144 550.251 329.939C550.251 329.734 564.344 329.564 581.724 329.564C599.105 329.564 613.198 329.734 613.198 329.939Z" fill="#04959E"/>
<path d="M685.988 329.939C685.988 330.144 671.894 330.314 654.514 330.314C637.134 330.314 623.041 330.144 623.041 329.939C623.041 329.734 637.134 329.564 654.514 329.564C671.894 329.564 685.988 329.734 685.988 329.939Z" fill="#E0E0E0"/>
<path d="M658.168 343.658C658.168 343.863 637.399 344.034 611.781 344.034C586.163 344.034 565.394 343.863 565.394 343.658C565.394 343.454 586.163 343.283 611.781 343.283C637.399 343.283 658.168 343.454 658.168 343.658Z" fill="#E0E0E0"/>
<path d="M658.168 357.386C658.168 357.591 637.399 357.762 611.781 357.762C586.163 357.762 565.394 357.591 565.394 357.386C565.394 357.181 586.163 357.011 611.781 357.011C637.399 357.011 658.168 357.181 658.168 357.386Z" fill="#E0E0E0"/>
<path d="M694.473 371.106C694.473 371.31 673.704 371.481 648.086 371.481C622.469 371.481 601.7 371.31 601.7 371.106C601.7 370.901 622.469 370.73 648.086 370.73C673.704 370.73 694.473 370.901 694.473 371.106Z" fill="#E0E0E0"/>
<path d="M807.845 371.106C807.845 371.31 787.076 371.481 761.459 371.481C735.841 371.481 715.072 371.31 715.072 371.106C715.072 370.901 735.841 370.73 761.459 370.73C787.076 370.73 807.845 370.901 807.845 371.106Z" fill="#E0E0E0"/>
<path d="M768.416 343.658C768.416 343.863 747.647 344.034 722.029 344.034C696.411 344.034 675.642 343.863 675.642 343.658C675.642 343.454 696.411 343.283 722.029 343.283C747.647 343.283 768.416 343.454 768.416 343.658Z" fill="#FAFAFA"/>
<path d="M819.702 357.386C819.702 357.591 787.452 357.762 747.672 357.762C707.893 357.762 675.642 357.591 675.642 357.386C675.642 357.181 707.884 357.011 747.672 357.011C787.46 357.011 819.702 357.181 819.702 357.386Z" fill="#455A64"/>
<path d="M583.013 371.106C583.013 371.31 575.484 371.481 566.188 371.481C556.892 371.481 549.363 371.31 549.363 371.106C549.363 370.901 556.892 370.73 566.188 370.73C575.484 370.73 583.013 370.901 583.013 371.106Z" fill="#FAFAFA"/>
<path d="M852.67 371.106C852.67 371.31 845.141 371.481 835.845 371.481C826.549 371.481 819.02 371.31 819.02 371.106C819.02 370.901 826.549 370.73 835.845 370.73C845.141 370.73 852.67 370.901 852.67 371.106Z" fill="#04959E"/>
<path d="M861.633 438.517C861.633 438.636 775.723 438.738 669.769 438.738C563.815 438.738 477.887 438.636 477.887 438.517C477.887 438.397 563.781 438.295 669.769 438.295C775.757 438.295 861.633 438.397 861.633 438.517Z" fill="#263238"/>
<path d="M463.529 363.307C451.757 351.269 433.319 346.209 417.048 350.561C431.185 360.031 447.062 365.108 464.076 365.244" fill="#04959E"/>
<path d="M447.762 307.508C449.7 293.823 444.374 278.415 434.121 268.466C433.78 282.032 439.516 297.304 447.762 307.508Z" fill="#04959E"/>
<path d="M455.966 333.369C448.659 319.411 436.665 307.952 422.375 301.289C426.66 317.047 440.148 329.948 456.094 333.522" fill="#04959E"/>
<path d="M457.665 338.36C449.393 338.59 441.019 338.3 433.02 336.184C425.021 334.068 417.356 329.999 412.029 323.668C428.12 323.685 444.177 328.582 457.537 337.549" fill="#04959E"/>
<path d="M453.465 321.927C457.665 306.195 464.596 295.316 476.966 286.503C477.905 294.156 476.018 302.125 471.758 308.549C467.499 314.974 460.883 319.812 453.473 321.927" fill="#04959E"/>
<path d="M484.691 349.051C484.904 339.913 479.014 330.929 470.538 327.482C471.229 335.604 477.606 344.998 484.691 349.051Z" fill="#04959E"/>
<path d="M488.643 335.792C489.582 322.653 498.921 310.495 511.384 306.195C508.525 319.342 500.919 330.28 488.643 335.792Z" fill="#04959E"/>
<path d="M482.685 359.323C485.604 355.151 490.359 352.557 495.293 351.269C500.227 349.981 505.366 349.87 510.454 349.759C503.582 357.309 493.27 361.601 483.069 361.157" fill="#04959E"/>
<path d="M476.778 392.854C485.954 390.021 496.181 390.755 504.863 394.867C513.544 398.98 520.587 406.419 524.206 415.318C506.971 412.05 489.975 404.397 476.769 392.862" fill="#04959E"/>
<path d="M457.861 381.199C460.721 389.654 460.174 399.875 453.815 407.162C451.228 398.485 452.756 388.673 457.861 381.199Z" fill="#04959E"/>
<path d="M446.687 376.506C445.893 387.376 438.936 397.589 429.11 402.324C428.624 402.563 428.06 402.785 427.557 402.58C426.78 402.264 426.712 401.206 426.806 400.379C428.052 389.543 436.085 379.066 446.687 376.515" fill="#04959E"/>
<path d="M439.388 375.406C434.548 380.636 427.488 383.741 420.361 383.776C413.233 383.81 406.147 380.781 401.256 375.602C413.378 374.28 427.36 373.392 439.388 375.406Z" fill="#04959E"/>
<path d="M437.57 278.56C437.57 278.56 437.604 278.679 437.681 278.918C437.775 279.165 437.894 279.507 438.048 279.942C438.389 280.863 438.885 282.177 439.508 283.866C440.157 285.564 440.916 287.655 441.787 290.086C442.222 291.298 442.692 292.603 443.187 293.977C443.665 295.359 444.169 296.826 444.698 298.362C446.849 304.497 449.231 311.86 451.8 320.059C454.327 328.275 456.982 337.336 459.594 346.901C462.172 356.482 464.451 365.645 466.397 374.015C468.284 382.393 469.914 389.961 471.084 396.36C471.383 397.956 471.673 399.474 471.946 400.916C472.194 402.358 472.424 403.715 472.638 404.995C473.073 407.537 473.449 409.73 473.705 411.53C473.978 413.305 474.191 414.695 474.336 415.668C474.413 416.12 474.473 416.479 474.516 416.743C474.558 416.982 474.584 417.11 474.592 417.11C474.601 417.11 474.592 416.982 474.567 416.743C474.533 416.479 474.49 416.12 474.439 415.659C474.311 414.687 474.123 413.296 473.892 411.513C473.67 409.704 473.32 407.511 472.902 404.96C472.697 403.681 472.475 402.324 472.245 400.874C471.98 399.432 471.707 397.905 471.417 396.309C470.282 389.902 468.694 382.325 466.824 373.93C464.904 365.551 462.633 356.371 460.055 346.781C457.443 337.208 454.771 328.139 452.218 319.931C449.623 311.732 447.199 304.377 445.014 298.251C444.476 296.716 443.955 295.257 443.469 293.874C442.956 292.501 442.478 291.204 442.035 289.992C441.138 287.569 440.361 285.488 439.687 283.798C439.021 282.126 438.509 280.821 438.142 279.908C437.971 279.481 437.835 279.148 437.732 278.901C437.638 278.671 437.587 278.56 437.579 278.56H437.57Z" fill="#263238"/>
<path d="M504.145 313.208C504.145 313.208 504.069 313.268 503.941 313.404C503.795 313.558 503.599 313.762 503.36 314.01C502.856 314.547 502.122 315.358 501.209 316.416C499.382 318.54 496.796 321.697 494.072 325.929C491.349 330.144 488.558 335.51 486.612 341.884C484.614 348.231 483.368 355.458 482.139 363C479.672 378.102 476.65 391.633 474.464 401.42C473.363 406.291 472.467 410.242 471.835 413.006C471.536 414.354 471.306 415.412 471.135 416.163C471.067 416.504 471.007 416.777 470.964 416.982C470.93 417.17 470.913 417.263 470.922 417.263C470.922 417.263 470.956 417.17 471.007 416.99C471.058 416.786 471.135 416.513 471.221 416.18C471.408 415.438 471.673 414.38 472.006 413.049C472.663 410.293 473.611 406.351 474.772 401.496C477.042 391.727 480.124 378.196 482.591 363.077C483.829 355.526 485.05 348.334 487.021 342.012C488.934 335.672 491.674 330.331 494.354 326.108C497.035 321.876 499.57 318.694 501.354 316.535C502.25 315.452 502.959 314.633 503.437 314.07C503.667 313.805 503.847 313.592 503.983 313.43C504.103 313.285 504.163 313.208 504.154 313.199L504.145 313.208Z" fill="#263238"/>
<path d="M435.76 374.894C435.76 374.894 435.914 374.936 436.196 374.971C436.537 375.005 436.947 375.056 437.45 375.107C437.732 375.133 438.031 375.167 438.355 375.192C438.688 375.244 439.047 375.295 439.431 375.355C440.199 375.465 441.078 375.585 442.035 375.79C442.513 375.884 443.016 375.986 443.537 376.088C444.058 376.216 444.595 376.353 445.15 376.498C446.269 376.754 447.43 377.163 448.667 377.53C451.1 378.383 453.729 379.484 456.342 380.909C458.945 382.359 461.25 384.023 463.222 385.687C464.178 386.548 465.1 387.359 465.86 388.221C466.679 389.031 467.336 389.867 467.951 390.627C468.591 391.361 469.044 392.128 469.496 392.76C469.957 393.383 470.29 393.971 470.555 394.441C470.811 394.876 471.024 395.234 471.195 395.524C471.349 395.772 471.434 395.899 471.451 395.891C471.468 395.882 471.408 395.746 471.28 395.481C471.127 395.174 470.939 394.799 470.708 394.347C470.461 393.852 470.153 393.255 469.71 392.606C469.274 391.958 468.839 391.173 468.207 390.413C467.61 389.629 466.952 388.775 466.141 387.939C465.382 387.06 464.46 386.233 463.504 385.345C461.532 383.648 459.201 381.95 456.563 380.482C453.917 379.04 451.262 377.94 448.804 377.104C447.558 376.737 446.38 376.336 445.244 376.097C444.681 375.96 444.134 375.832 443.614 375.713C443.085 375.619 442.581 375.525 442.094 375.44C441.13 375.244 440.242 375.158 439.465 375.064C439.081 375.022 438.722 374.979 438.381 374.936C438.057 374.919 437.749 374.902 437.468 374.885C436.964 374.868 436.546 374.851 436.204 374.834C435.914 374.834 435.76 374.834 435.76 374.851V374.894Z" fill="#263238"/>
<path d="M432.312 313.498C432.312 313.498 432.602 313.822 433.182 314.343C433.84 314.914 434.676 315.639 435.675 316.501C437.792 318.31 440.746 320.793 444.015 323.506C447.293 326.219 450.272 328.659 452.449 330.408C453.49 331.227 454.353 331.918 455.035 332.456C455.65 332.934 456 333.181 456.026 333.156C456.051 333.13 455.735 332.831 455.146 332.311C454.489 331.739 453.653 331.014 452.654 330.144C450.537 328.335 447.583 325.852 444.314 323.139C441.036 320.426 438.057 317.986 435.888 316.245C434.847 315.426 433.985 314.735 433.302 314.198C432.687 313.72 432.329 313.472 432.312 313.489V313.498Z" fill="#263238"/>
<path d="M429.332 329.529C429.298 329.649 435.658 331.637 443.545 333.966C451.433 336.295 457.853 338.087 457.895 337.959C457.929 337.84 451.57 335.852 443.682 333.522C435.794 331.193 429.375 329.401 429.341 329.529H429.332Z" fill="#263238"/>
<path d="M452.833 323.148C452.833 323.148 453.089 322.84 453.49 322.235C453.934 321.552 454.498 320.699 455.172 319.684C456.598 317.534 458.612 314.599 461.002 311.467C463.393 308.345 465.697 305.623 467.396 303.678C468.199 302.765 468.873 301.997 469.411 301.383C469.889 300.837 470.136 300.529 470.111 300.504C470.085 300.478 469.795 300.751 469.274 301.255C468.753 301.758 468.028 302.509 467.149 303.456C465.39 305.35 463.034 308.046 460.635 311.186C458.237 314.326 456.248 317.303 454.899 319.504C454.225 320.605 453.687 321.509 453.345 322.141C452.995 322.772 452.816 323.131 452.842 323.148H452.833Z" fill="#263238"/>
<path d="M474.934 332.038C474.874 332.081 475.48 333.002 476.428 334.495C477.375 335.988 478.673 338.07 480.004 340.408C481.336 342.754 482.463 344.921 483.265 346.508C484.068 348.086 484.554 349.076 484.614 349.042C484.665 349.016 484.29 347.984 483.564 346.363C482.839 344.742 481.754 342.541 480.414 340.177C479.074 337.823 477.734 335.758 476.709 334.307C475.685 332.857 474.994 332.004 474.942 332.038H474.934Z" fill="#263238"/>
<path d="M482.497 359.767C482.531 359.826 483.743 359.238 485.732 358.342C487.721 357.446 490.496 356.277 493.629 355.176C496.77 354.084 499.664 353.265 501.772 352.728C503.881 352.19 505.204 351.892 505.187 351.823C505.187 351.789 504.845 351.823 504.239 351.926C503.633 352.02 502.763 352.182 501.695 352.412C499.553 352.873 496.625 353.641 493.475 354.741C490.325 355.851 487.551 357.071 485.587 358.043C484.606 358.53 483.829 358.948 483.3 359.246C482.77 359.553 482.48 359.733 482.497 359.758V359.767Z" fill="#263238"/>
<path d="M476.539 392.905C476.539 392.905 476.667 392.964 476.931 393.041C477.247 393.118 477.623 393.22 478.075 393.331C479.151 393.579 480.576 393.912 482.309 394.304C485.878 395.132 490.846 396.173 496.138 397.947C501.422 399.747 505.964 402.034 509.037 404.005C510.582 404.986 511.777 405.856 512.588 406.479C513.399 407.102 513.843 407.452 513.868 407.426C513.877 407.418 513.783 407.307 513.587 407.128C513.39 406.948 513.1 406.667 512.699 406.343C511.922 405.669 510.744 404.756 509.208 403.732C506.152 401.676 501.602 399.321 496.283 397.512C490.957 395.72 485.963 394.731 482.378 393.98C480.636 393.639 479.194 393.357 478.109 393.144C477.102 392.956 476.539 392.862 476.53 392.896L476.539 392.905Z" fill="#263238"/>
<path d="M455.018 401.07C455.146 401.087 455.906 396.625 456.709 391.105C457.52 385.584 458.066 381.088 457.946 381.071C457.818 381.054 457.059 385.516 456.256 391.036C455.445 396.556 454.899 401.053 455.018 401.07Z" fill="#263238"/>
<path d="M432.602 392.939C432.653 392.982 433.413 392.052 434.625 390.541C435.837 389.031 437.519 386.958 439.414 384.697C441.309 382.436 443.067 380.431 444.348 378.981C445.62 377.53 446.414 376.626 446.362 376.583C446.337 376.558 446.115 376.754 445.722 377.129C445.33 377.505 444.775 378.059 444.109 378.759C442.769 380.158 440.967 382.137 439.064 384.398C437.16 386.659 435.521 388.775 434.369 390.337C433.797 391.113 433.344 391.753 433.037 392.205C432.738 392.657 432.576 392.913 432.602 392.93V392.939Z" fill="#263238"/>
<path d="M491.913 413.714V424.78H489.147L479.304 455.836H457.477L447.933 425.096L444.245 424.78V413.714H491.913Z" fill="#04959E"/>
<g opacity="0.3">
<path d="M491.913 413.714V424.78H489.147L479.304 455.836H457.477L447.933 425.096L444.245 424.78V413.714H491.913Z" fill="black"/>
</g>
<path d="M446.089 425.096C446.089 425.224 455.727 425.326 467.618 425.326C479.509 425.326 489.147 425.224 489.147 425.096C489.147 424.968 479.509 424.865 467.618 424.865C455.727 424.865 446.089 424.968 446.089 425.096Z" fill="#263238"/>
<path d="M430.391 353.897C430.391 353.897 430.886 354.059 431.791 354.272C432.773 354.511 434.062 354.818 435.624 355.194C438.85 355.996 443.289 357.207 448.095 358.82C452.91 360.441 457.17 362.147 460.226 363.461C461.694 364.101 462.906 364.638 463.837 365.039C464.69 365.415 465.168 365.611 465.177 365.585C465.194 365.56 464.741 365.304 463.913 364.877C463.085 364.442 461.873 363.853 460.354 363.162C457.323 361.772 453.064 360.006 448.232 358.376C443.409 356.755 438.944 355.586 435.683 354.869C434.053 354.511 432.73 354.247 431.816 354.084C430.895 353.922 430.391 353.854 430.382 353.88L430.391 353.897Z" fill="#263238"/>
<path d="M453.337 442.339C453.337 442.467 460.098 442.569 468.438 442.569C476.778 442.569 483.539 442.467 483.539 442.339C483.539 442.211 476.778 442.109 468.438 442.109C460.098 442.109 453.337 442.211 453.337 442.339Z" fill="#FAFAFA"/>
<path d="M452.492 439.771C452.492 439.899 459.662 440.001 468.497 440.001C477.333 440.001 484.503 439.899 484.503 439.771C484.503 439.643 477.341 439.54 468.497 439.54C459.654 439.54 452.492 439.643 452.492 439.771Z" fill="#FAFAFA"/>
<path d="M578.927 327.182H569.313C569.245 326.386 569.063 325.665 568.768 325.017C568.484 324.369 568.086 323.812 567.575 323.347C567.075 322.869 566.467 322.506 565.751 322.256C565.035 321.994 564.222 321.864 563.313 321.864C561.722 321.864 560.376 322.25 559.273 323.023C558.183 323.795 557.353 324.903 556.785 326.347C556.228 327.79 555.95 329.523 555.95 331.545C555.95 333.682 556.234 335.472 556.802 336.915C557.381 338.347 558.217 339.426 559.308 340.153C560.398 340.869 561.711 341.227 563.245 341.227C564.12 341.227 564.904 341.119 565.597 340.903C566.29 340.676 566.893 340.352 567.404 339.932C567.915 339.511 568.33 339.006 568.648 338.415C568.978 337.812 569.2 337.136 569.313 336.386L578.927 336.455C578.813 337.932 578.398 339.437 577.683 340.972C576.967 342.494 575.95 343.903 574.631 345.199C573.325 346.483 571.705 347.517 569.773 348.301C567.842 349.085 565.597 349.477 563.04 349.477C559.836 349.477 556.961 348.79 554.415 347.415C551.881 346.04 549.876 344.017 548.398 341.347C546.933 338.676 546.2 335.409 546.2 331.545C546.2 327.659 546.95 324.386 548.45 321.727C549.95 319.057 551.972 317.04 554.518 315.676C557.063 314.301 559.904 313.614 563.04 313.614C565.245 313.614 567.273 313.915 569.126 314.517C570.978 315.119 572.603 316 574.001 317.159C575.398 318.307 576.523 319.722 577.376 321.403C578.228 323.085 578.745 325.011 578.927 327.182ZM602.045 325C601.954 323.864 601.528 322.977 600.766 322.341C600.016 321.705 598.874 321.386 597.34 321.386C596.363 321.386 595.562 321.506 594.937 321.744C594.323 321.972 593.869 322.284 593.573 322.682C593.278 323.08 593.124 323.534 593.113 324.045C593.09 324.466 593.164 324.847 593.335 325.188C593.516 325.517 593.8 325.818 594.187 326.091C594.573 326.352 595.067 326.591 595.67 326.807C596.272 327.023 596.988 327.216 597.817 327.386L600.681 328C602.613 328.409 604.266 328.949 605.641 329.619C607.016 330.29 608.141 331.08 609.016 331.989C609.891 332.886 610.533 333.898 610.942 335.023C611.363 336.148 611.579 337.375 611.59 338.705C611.579 341 611.005 342.943 609.869 344.534C608.732 346.125 607.107 347.335 604.994 348.165C602.891 348.994 600.363 349.409 597.408 349.409C594.374 349.409 591.727 348.96 589.465 348.062C587.215 347.165 585.465 345.784 584.215 343.92C582.977 342.045 582.352 339.648 582.34 336.727H591.34C591.397 337.795 591.664 338.693 592.141 339.42C592.619 340.148 593.289 340.699 594.153 341.074C595.028 341.449 596.067 341.636 597.272 341.636C598.283 341.636 599.13 341.511 599.812 341.261C600.494 341.011 601.011 340.665 601.363 340.222C601.715 339.778 601.897 339.273 601.908 338.705C601.897 338.17 601.721 337.705 601.38 337.307C601.05 336.898 600.505 336.534 599.744 336.216C598.982 335.886 597.954 335.58 596.658 335.295L593.181 334.545C590.09 333.875 587.653 332.756 585.869 331.188C584.096 329.608 583.215 327.455 583.227 324.727C583.215 322.511 583.806 320.574 584.999 318.915C586.204 317.244 587.869 315.943 589.994 315.011C592.13 314.08 594.579 313.614 597.34 313.614C600.158 313.614 602.596 314.085 604.653 315.028C606.71 315.972 608.295 317.301 609.408 319.017C610.533 320.722 611.102 322.716 611.113 325H602.045ZM634.013 325C633.923 323.864 633.496 322.977 632.735 322.341C631.985 321.705 630.843 321.386 629.309 321.386C628.332 321.386 627.531 321.506 626.906 321.744C626.292 321.972 625.837 322.284 625.542 322.682C625.246 323.08 625.093 323.534 625.082 324.045C625.059 324.466 625.133 324.847 625.303 325.188C625.485 325.517 625.769 325.818 626.156 326.091C626.542 326.352 627.036 326.591 627.638 326.807C628.241 327.023 628.957 327.216 629.786 327.386L632.65 328C634.582 328.409 636.235 328.949 637.61 329.619C638.985 330.29 640.11 331.08 640.985 331.989C641.86 332.886 642.502 333.898 642.911 335.023C643.332 336.148 643.548 337.375 643.559 338.705C643.548 341 642.974 342.943 641.837 344.534C640.701 346.125 639.076 347.335 636.962 348.165C634.86 348.994 632.332 349.409 629.377 349.409C626.343 349.409 623.695 348.96 621.434 348.062C619.184 347.165 617.434 345.784 616.184 343.92C614.945 342.045 614.32 339.648 614.309 336.727H623.309C623.366 337.795 623.633 338.693 624.11 339.42C624.587 340.148 625.258 340.699 626.121 341.074C626.996 341.449 628.036 341.636 629.241 341.636C630.252 341.636 631.099 341.511 631.781 341.261C632.462 341.011 632.979 340.665 633.332 340.222C633.684 339.778 633.866 339.273 633.877 338.705C633.866 338.17 633.69 337.705 633.349 337.307C633.019 336.898 632.474 336.534 631.712 336.216C630.951 335.886 629.923 335.58 628.627 335.295L625.15 334.545C622.059 333.875 619.621 332.756 617.837 331.188C616.065 329.608 615.184 327.455 615.195 324.727C615.184 322.511 615.775 320.574 616.968 318.915C618.173 317.244 619.837 315.943 621.962 315.011C624.099 314.08 626.548 313.614 629.309 313.614C632.127 313.614 634.565 314.085 636.621 315.028C638.678 315.972 640.263 317.301 641.377 319.017C642.502 320.722 643.07 322.716 643.082 325H634.013Z" fill="#FAFAFA"/>
<path d="M986.282 456.016C986.282 456.135 856.153 456.237 695.668 456.237C535.184 456.237 405.029 456.135 405.029 456.016C405.029 455.896 535.133 455.794 695.668 455.794C856.204 455.794 986.282 455.896 986.282 456.016Z" fill="#263238"/>
<path d="M906.535 131.494H677.776V273.099H870.358L882.274 300.512L892.851 273.099H906.535V131.494Z" fill="#FAFAFA"/>
<path d="M906.535 131.494C906.535 132.868 906.603 186.065 906.706 273.099V273.27H906.535C902.335 273.27 897.631 273.27 892.842 273.27L893.005 273.159C889.692 281.751 886.124 291.016 882.445 300.581L882.283 301.007L882.095 300.581C878.356 291.989 874.31 282.706 870.161 273.167L870.34 273.287C818.601 273.287 759.137 273.304 696.181 273.312C690 273.312 683.845 273.312 677.759 273.312H677.537V273.091C677.537 222.624 677.554 174.734 677.554 131.486V131.281H677.759C812.822 131.401 904.725 131.486 906.526 131.486C904.725 131.486 812.822 131.571 677.759 131.691L677.964 131.486C677.964 174.726 677.972 222.624 677.981 273.091L677.759 272.869C683.854 272.869 690 272.869 696.181 272.869C759.137 272.877 818.593 272.886 870.34 272.894H870.468L870.52 273.014C874.66 282.553 878.698 291.844 882.437 300.436H882.087C885.774 290.88 889.351 281.623 892.663 273.031L892.706 272.92H892.825C897.614 272.92 902.309 272.92 906.518 272.92L906.347 273.091C906.449 186.056 906.518 132.86 906.518 131.486L906.535 131.494Z" fill="#263238"/>
<path d="M906.415 145.316C906.415 145.487 855.308 145.632 792.275 145.632C729.242 145.632 678.118 145.495 678.118 145.316C678.118 145.137 729.216 145 792.275 145C855.333 145 906.415 145.137 906.415 145.316Z" fill="#263238"/>
<path d="M689.932 139.054C689.932 140.086 689.095 140.931 688.054 140.931C687.012 140.931 686.176 140.095 686.176 139.054C686.176 138.013 687.012 137.177 688.054 137.177C689.095 137.177 689.932 138.013 689.932 139.054Z" fill="#263238"/>
<path d="M696.718 139.054C696.718 140.086 695.882 140.931 694.84 140.931C693.799 140.931 692.962 140.095 692.962 139.054C692.962 138.013 693.799 137.177 694.84 137.177C695.882 137.177 696.718 138.013 696.718 139.054Z" fill="#263238"/>
<path d="M703.505 139.054C703.505 140.086 702.668 140.931 701.627 140.931C700.585 140.931 699.749 140.095 699.749 139.054C699.749 138.013 700.585 137.177 701.627 137.177C702.668 137.177 703.505 138.013 703.505 139.054Z" fill="#263238"/>
<path d="M702.728 170.648L697.299 172.746L702.728 174.845V176.116L695.873 173.412V172.098L702.728 169.393V170.665V170.648Z" fill="#263238"/>
<path d="M708.379 165.213H709.711L704.657 179.623H703.326L708.379 165.213Z" fill="#263238"/>
<path d="M717.026 172.081V173.395L710.172 176.099V174.828L715.618 172.729L710.172 170.63V169.359L717.026 172.064V172.081Z" fill="#263238"/>
<path d="M718.759 177.132C718.759 176.517 719.237 176.091 719.801 176.091C720.364 176.091 720.808 176.517 720.808 177.132C720.808 177.746 720.347 178.19 719.801 178.19C719.254 178.19 718.759 177.746 718.759 177.132Z" fill="#263238"/>
<path d="M722.234 177.132C722.234 176.517 722.712 176.091 723.275 176.091C723.839 176.091 724.282 176.517 724.282 177.132C724.282 177.746 723.821 178.19 723.275 178.19C722.729 178.19 722.234 177.746 722.234 177.132Z" fill="#263238"/>
<path d="M725.708 177.132C725.708 176.517 726.186 176.091 726.749 176.091C727.313 176.091 727.757 176.517 727.757 177.132C727.757 177.746 727.296 178.19 726.749 178.19C726.203 178.19 725.708 177.746 725.708 177.132Z" fill="#263238"/>
<path d="M847.181 190.86C847.181 191.03 813.36 191.175 771.66 191.175C729.959 191.175 696.129 191.039 696.129 190.86C696.129 190.681 729.942 190.544 771.66 190.544C813.377 190.544 847.181 190.681 847.181 190.86Z" fill="#455A64"/>
<path d="M871.851 191.312C871.851 191.483 868.599 191.628 864.595 191.628C860.592 191.628 857.339 191.491 857.339 191.312C857.339 191.133 860.592 190.996 864.595 190.996C868.599 190.996 871.851 191.133 871.851 191.312Z" fill="#263238"/>
<path d="M893.064 191.312C893.064 191.483 889.513 191.628 885.134 191.628C880.755 191.628 877.204 191.491 877.204 191.312C877.204 191.133 880.755 190.996 885.134 190.996C889.513 190.996 893.064 191.133 893.064 191.312Z" fill="#263238"/>
<path d="M792.318 203.581C792.318 203.751 770.823 203.896 744.317 203.896C717.812 203.896 696.309 203.76 696.309 203.581C696.309 203.402 717.795 203.265 744.317 203.265C770.84 203.265 792.318 203.402 792.318 203.581Z" fill="#455A64"/>
<path d="M791.626 251.044C791.626 251.215 770.131 251.36 743.626 251.36C717.12 251.36 695.617 251.223 695.617 251.044C695.617 250.865 717.103 250.728 743.626 250.728C770.149 250.728 791.626 250.865 791.626 251.044Z" fill="#455A64"/>
<path d="M827.197 203.581C827.197 203.751 821.35 203.896 814.137 203.896C806.923 203.896 801.076 203.76 801.076 203.581C801.076 203.402 806.923 203.265 814.137 203.265C821.35 203.265 827.197 203.402 827.197 203.581Z" fill="#263238"/>
<path d="M826.924 251.044C826.924 251.215 821.077 251.36 813.864 251.36C806.65 251.36 800.803 251.223 800.803 251.044C800.803 250.865 806.65 250.728 813.864 250.728C821.077 250.728 826.924 250.865 826.924 251.044Z" fill="#263238"/>
<path d="M702.6 210.057C702.6 210.227 701.149 210.372 699.365 210.372C697.581 210.372 696.129 210.236 696.129 210.057C696.129 209.877 697.581 209.741 699.365 209.741C701.149 209.741 702.6 209.877 702.6 210.057Z" fill="#04959E"/>
<path d="M724.931 210.185C724.931 210.355 721.781 210.5 717.897 210.5C714.013 210.5 710.863 210.364 710.863 210.185C710.863 210.005 714.013 209.869 717.897 209.869C721.781 209.869 724.931 210.005 724.931 210.185Z" fill="#263238"/>
<path d="M739.221 210.185C739.221 210.355 736.524 210.5 733.194 210.5C729.865 210.5 727.168 210.364 727.168 210.185C727.168 210.005 729.865 209.869 733.194 209.869C736.524 209.869 739.221 210.005 739.221 210.185Z" fill="#263238"/>
<path d="M757.31 210.185C757.31 210.355 754.561 210.5 751.172 210.5C747.783 210.5 745.034 210.364 745.034 210.185C745.034 210.005 747.783 209.869 751.172 209.869C754.561 209.869 757.31 210.005 757.31 210.185Z" fill="#263238"/>
<path d="M773.162 210.185C773.162 210.355 770.661 210.5 767.579 210.5C764.497 210.5 761.996 210.364 761.996 210.185C761.996 210.005 764.497 209.869 767.579 209.869C770.661 209.869 773.162 210.005 773.162 210.185Z" fill="#263238"/>
<path d="M825.635 210.185C825.635 210.355 814.64 210.5 801.076 210.5C787.512 210.5 776.517 210.364 776.517 210.185C776.517 210.005 787.512 209.869 801.076 209.869C814.64 209.869 825.635 210.005 825.635 210.185Z" fill="#263238"/>
<path d="M701.712 218.307C701.712 218.478 700.466 218.623 698.921 218.623C697.376 218.623 696.129 218.486 696.129 218.307C696.129 218.128 697.376 217.991 698.921 217.991C700.466 217.991 701.712 218.128 701.712 218.307Z" fill="#04959E"/>
<path d="M701.934 226.788C701.934 226.958 700.637 227.103 699.032 227.103C697.427 227.103 696.129 226.967 696.129 226.788C696.129 226.609 697.427 226.472 699.032 226.472C700.637 226.472 701.934 226.609 701.934 226.788Z" fill="#04959E"/>
<path d="M701.934 236.386C701.934 236.557 700.637 236.702 699.032 236.702C697.427 236.702 696.129 236.565 696.129 236.386C696.129 236.207 697.427 236.07 699.032 236.07C700.637 236.07 701.934 236.207 701.934 236.386Z" fill="#04959E"/>
<path d="M754.851 235.943C754.851 236.113 745.154 236.258 733.194 236.258C721.235 236.258 711.538 236.122 711.538 235.943C711.538 235.763 721.235 235.627 733.194 235.627C745.154 235.627 754.851 235.763 754.851 235.943Z" fill="#263238"/>
<path d="M751.053 226.788C751.053 226.958 741.808 227.103 730.403 227.103C718.998 227.103 709.745 226.967 709.745 226.788C709.745 226.609 718.99 226.472 730.403 226.472C741.816 226.472 751.053 226.609 751.053 226.788Z" fill="#263238"/>
<path d="M850.86 217.863C850.86 218.034 819.37 218.179 780.529 218.179C741.688 218.179 710.189 218.042 710.189 217.863C710.189 217.684 741.671 217.548 780.529 217.548C819.387 217.548 850.86 217.684 850.86 217.863Z" fill="#263238"/>
<path d="M920.594 189.401V309.735L901.874 325.349H920.594H922.43H999.778V189.401H920.594Z" fill="#FAFAFA"/>
<path d="M920.594 189.401C920.594 189.401 921.055 189.392 921.977 189.384C922.908 189.384 924.282 189.375 926.075 189.367C929.686 189.358 935.004 189.341 941.841 189.324C955.559 189.307 975.364 189.273 999.778 189.239H999.949V189.409C999.966 225.73 999.983 273.167 1000 325.357V325.579H999.778C995.424 325.579 990.755 325.579 986.051 325.579C956.234 325.579 927.748 325.571 901.882 325.562H901.311L901.746 325.195C908.216 319.803 914.465 314.599 920.475 309.59L920.406 309.744C920.449 273.765 920.483 243.664 920.509 222.547C920.535 212.01 920.552 203.726 920.56 198.061C920.569 195.245 920.577 193.078 920.586 191.61C920.586 190.885 920.594 190.339 920.594 189.964C920.594 189.597 920.603 189.409 920.603 189.409C920.603 189.409 920.603 189.605 920.611 189.981C920.611 190.365 920.611 190.919 920.62 191.653C920.62 193.129 920.637 195.305 920.645 198.137C920.654 203.811 920.671 212.121 920.697 222.667C920.722 243.758 920.756 273.816 920.799 309.735V309.829L920.731 309.889C914.73 314.897 908.481 320.11 902.019 325.511L901.882 325.144C927.756 325.144 956.234 325.135 986.051 325.127C990.755 325.127 995.424 325.127 999.778 325.127L999.556 325.349C999.573 273.167 999.599 225.721 999.607 189.401L999.778 189.571C975.407 189.537 955.636 189.503 941.944 189.486C935.089 189.469 929.762 189.452 926.143 189.443C924.333 189.443 922.959 189.426 922.02 189.426C921.089 189.426 920.603 189.409 920.603 189.409L920.594 189.401Z" fill="#263238"/>
<path d="M927.782 195.39C927.782 196.277 927.065 196.994 926.177 196.994C925.289 196.994 924.572 196.277 924.572 195.39C924.572 194.503 925.289 193.786 926.177 193.786C927.065 193.786 927.782 194.503 927.782 195.39Z" fill="#263238"/>
<path d="M933.595 195.39C933.595 196.277 932.878 196.994 931.99 196.994C931.103 196.994 930.386 196.277 930.386 195.39C930.386 194.503 931.103 193.786 931.99 193.786C932.878 193.786 933.595 194.503 933.595 195.39Z" fill="#263238"/>
<path d="M939.4 195.39C939.4 196.277 938.683 196.994 937.795 196.994C936.907 196.994 936.19 196.277 936.19 195.39C936.19 194.503 936.907 193.786 937.795 193.786C938.683 193.786 939.4 194.503 939.4 195.39Z" fill="#263238"/>
<path d="M978.01 232.47C978.01 232.615 967.971 232.726 955.594 232.726C943.216 232.726 933.177 232.615 933.177 232.47C933.177 232.325 943.216 232.214 955.594 232.214C967.971 232.214 978.01 232.325 978.01 232.47Z" fill="#04959E"/>
<path d="M987.358 243.348C987.358 243.493 975.142 243.604 960.075 243.604C945.008 243.604 932.793 243.493 932.793 243.348C932.793 243.203 945.008 243.092 960.075 243.092C975.142 243.092 987.358 243.203 987.358 243.348Z" fill="#04959E"/>
<path d="M989.586 283.969C989.586 284.114 976.559 284.225 960.493 284.225C944.428 284.225 931.401 284.114 931.401 283.969C931.401 283.824 944.428 283.713 960.493 283.713C976.559 283.713 989.586 283.824 989.586 283.969Z" fill="#04959E"/>
<path d="M937.377 248.885C937.377 249.03 936.139 249.141 934.603 249.141C933.066 249.141 931.828 249.03 931.828 248.885C931.828 248.74 933.066 248.629 934.603 248.629C936.139 248.629 937.377 248.74 937.377 248.885Z" fill="#04959E"/>
<path d="M956.481 249.005C956.481 249.15 953.784 249.261 950.463 249.261C947.143 249.261 944.445 249.15 944.445 249.005C944.445 248.86 947.143 248.749 950.463 248.749C953.784 248.749 956.481 248.86 956.481 249.005Z" fill="#04959E"/>
<path d="M968.714 249.005C968.714 249.15 966.401 249.261 963.558 249.261C960.715 249.261 958.402 249.15 958.402 249.005C958.402 248.86 960.715 248.749 963.558 248.749C966.401 248.749 968.714 248.86 968.714 249.005Z" fill="#04959E"/>
<path d="M936.617 255.958C936.617 256.103 935.55 256.214 934.227 256.214C932.904 256.214 931.837 256.103 931.837 255.958C931.837 255.813 932.904 255.702 934.227 255.702C935.55 255.702 936.617 255.813 936.617 255.958Z" fill="#04959E"/>
<path d="M936.805 263.211C936.805 263.356 935.695 263.467 934.321 263.467C932.946 263.467 931.837 263.356 931.837 263.211C931.837 263.066 932.946 262.955 934.321 262.955C935.695 262.955 936.805 263.066 936.805 263.211Z" fill="#04959E"/>
<path d="M936.805 271.418C936.805 271.563 935.695 271.674 934.321 271.674C932.946 271.674 931.837 271.563 931.837 271.418C931.837 271.273 932.946 271.162 934.321 271.162C935.695 271.162 936.805 271.273 936.805 271.418Z" fill="#04959E"/>
<path d="M982.091 271.043C982.091 271.188 973.793 271.299 963.558 271.299C953.323 271.299 945.025 271.188 945.025 271.043C945.025 270.898 953.323 270.787 963.558 270.787C973.793 270.787 982.091 270.898 982.091 271.043Z" fill="#04959E"/>
<path d="M978.838 263.211C978.838 263.356 970.925 263.467 961.168 263.467C951.411 263.467 943.497 263.356 943.497 263.211C943.497 263.066 951.411 262.955 961.168 262.955C970.925 262.955 978.838 263.066 978.838 263.211Z" fill="#04959E"/>
<path d="M940.424 294.813C940.424 294.958 939.315 295.069 937.94 295.069C936.566 295.069 935.456 294.958 935.456 294.813C935.456 294.668 936.566 294.557 937.94 294.557C939.315 294.557 940.424 294.668 940.424 294.813Z" fill="#04959E"/>
<path d="M940.424 303.021C940.424 303.166 939.315 303.277 937.94 303.277C936.566 303.277 935.456 303.166 935.456 303.021C935.456 302.876 936.566 302.765 937.94 302.765C939.315 302.765 940.424 302.876 940.424 303.021Z" fill="#04959E"/>
<path d="M985.701 302.637C985.701 302.782 977.404 302.893 967.169 302.893C956.934 302.893 948.636 302.782 948.636 302.637C948.636 302.492 956.934 302.381 967.169 302.381C977.404 302.381 985.701 302.492 985.701 302.637Z" fill="#04959E"/>
<path d="M982.458 294.813C982.458 294.958 974.544 295.069 964.787 295.069C955.03 295.069 947.117 294.958 947.117 294.813C947.117 294.668 955.03 294.557 964.787 294.557C974.544 294.557 982.458 294.668 982.458 294.813Z" fill="#04959E"/>
<path d="M991.984 255.575C991.984 255.72 981.211 255.83 967.929 255.83C954.646 255.83 943.873 255.72 943.873 255.575C943.873 255.429 954.637 255.319 967.929 255.319C981.22 255.319 991.984 255.429 991.984 255.575Z" fill="#04959E"/>
<path d="M999.035 201.67C999.035 201.815 981.647 201.926 960.203 201.926C938.76 201.926 921.371 201.815 921.371 201.67C921.371 201.525 938.751 201.414 960.203 201.414C981.655 201.414 999.035 201.525 999.035 201.67Z" fill="#263238"/>
<path d="M949.55 225.9C949.55 226.045 945.879 226.156 941.346 226.156C936.813 226.156 933.143 226.045 933.143 225.9C933.143 225.755 936.813 225.644 941.346 225.644C945.879 225.644 949.55 225.755 949.55 225.9Z" fill="#04959E"/>
<path d="M940.271 211.055C940.271 211.2 938.538 211.311 936.404 211.311C934.27 211.311 932.537 211.2 932.537 211.055C932.537 210.91 934.27 210.799 936.404 210.799C938.538 210.799 940.271 210.91 940.271 211.055Z" fill="#04959E"/>
<path d="M871.74 386.292L888.933 369.305L858.27 316.825C855.077 313.174 851.04 310.367 846.507 308.643L835.708 304.539L808.861 299.616L789.799 307.116C784.985 309.01 782.048 313.916 782.663 319.061L787.648 361.004L790.585 415.617L859.841 403.612L852.875 383.409L853.105 351.917L871.74 386.292Z" fill="#04959E"/>
<path d="M853.507 382.069C853.669 382.069 853.711 371.157 853.6 357.702C853.49 344.239 853.268 333.335 853.105 333.335C852.943 333.335 852.901 344.247 853.011 357.702C853.122 371.157 853.344 382.069 853.507 382.061V382.069Z" fill="#263238"/>
<path d="M850.971 390.072L809.126 373.239C805.754 371.882 803.441 368.725 803.159 365.099L800.094 324.999C800.094 324.999 800.453 307.944 789.799 307.116L783.738 309.505C775.902 313.669 773.964 325.067 775.031 333.872C776.551 346.38 777.183 364.084 778.873 374.945C780.264 383.827 785.599 390.849 794.05 393.929L845.593 405.08L850.98 390.081L850.971 390.072Z" fill="#04959E"/>
<path d="M800.7 331.116C800.7 331.116 800.769 331.432 800.828 332.038C800.897 332.695 800.982 333.574 801.093 334.683C801.306 337.029 801.605 340.339 801.981 344.409C802.339 348.53 802.758 353.419 803.219 358.837C803.33 360.193 803.449 361.584 803.569 363.009C803.697 364.434 803.782 365.884 804.106 367.3C804.414 368.717 805.097 370.048 806.189 371.054C807.273 372.07 808.631 372.812 810.048 373.452C821.589 378.443 832.225 382.564 839.942 385.456C843.775 386.864 846.891 388.016 849.11 388.835C850.152 389.219 850.988 389.526 851.603 389.756C852.175 389.97 852.465 390.089 852.457 390.115C852.457 390.132 852.141 390.047 851.56 389.867C850.937 389.663 850.092 389.39 849.034 389.048C846.84 388.323 843.69 387.24 839.806 385.84C832.038 383.042 821.393 378.981 809.817 373.981C808.375 373.324 806.966 372.565 805.805 371.472C804.636 370.397 803.884 368.913 803.577 367.437C803.244 365.952 803.167 364.485 803.048 363.069C802.937 361.644 802.826 360.253 802.715 358.896C802.297 353.47 801.913 348.581 801.597 344.452C801.298 340.382 801.059 337.063 800.888 334.708C800.82 333.599 800.769 332.712 800.726 332.055C800.692 331.449 800.683 331.133 800.709 331.125L800.7 331.116Z" fill="#263238"/>
<path d="M776.722 352.916C776.722 352.916 776.764 353.103 776.807 353.453C776.841 353.871 776.892 354.383 776.944 354.997C777.072 356.422 777.234 358.35 777.439 360.688C777.669 363.086 777.959 365.944 778.378 369.101C778.804 372.249 779.317 375.73 780.264 379.262C780.717 381.045 781.348 382.692 782.304 384.108C783.26 385.533 784.328 386.813 785.429 387.948C787.64 390.209 790.004 391.864 792.121 392.973C796.407 395.2 799.514 395.225 799.471 395.379C799.471 395.396 799.283 395.396 798.925 395.37C798.566 395.345 798.046 395.302 797.38 395.174C796.048 394.935 794.127 394.415 791.942 393.331C789.765 392.256 787.332 390.601 785.062 388.323C783.926 387.18 782.834 385.883 781.852 384.433C780.853 382.974 780.17 381.216 779.726 379.433C778.762 375.849 778.267 372.36 777.865 369.194C777.473 366.021 777.225 363.154 777.046 360.748C776.867 358.342 776.773 356.388 776.73 355.04C776.713 354.417 776.705 353.905 776.696 353.487C776.696 353.129 776.705 352.941 776.722 352.941V352.916Z" fill="#263238"/>
<path d="M794.614 380.977C794.554 380.96 794.733 380.064 795.374 378.75C796.005 377.436 797.183 375.73 798.891 374.271C800.606 372.812 802.467 371.925 803.867 371.507C805.267 371.08 806.181 371.046 806.189 371.106C806.206 371.199 805.327 371.37 803.995 371.882C802.664 372.385 800.905 373.298 799.249 374.698C797.602 376.105 796.424 377.701 795.724 378.938C795.015 380.175 794.699 381.011 794.614 380.977Z" fill="#263238"/>
<g opacity="0.3">
<path d="M838.944 385.294C834.47 382.769 830.091 380.824 825.413 378.699C820.735 376.575 816.151 373.844 813.087 369.723C807.308 361.942 807.973 350.714 802.058 343.036C802.442 348.197 802.826 353.359 803.219 358.521C803.569 363.256 802.843 367.932 805.899 371.148C808.469 373.853 813.479 375.935 817.022 377.104C824.15 379.45 831.824 382.939 838.944 385.294Z" fill="black"/>
</g>
<path opacity="0.3" d="M853.114 336.295L856.733 358.606L853.31 352.293L853.114 336.295Z" fill="black"/>
<path d="M799.437 322.525C799.437 322.525 799.087 322.584 798.464 322.602C797.747 322.619 796.868 322.644 795.826 322.67C793.598 322.729 790.525 322.84 787.136 323.079C783.747 323.327 780.682 323.651 778.472 323.915C777.439 324.035 776.559 324.137 775.851 324.223C775.228 324.291 774.886 324.316 774.878 324.291C774.878 324.257 775.211 324.18 775.825 324.052C776.44 323.924 777.328 323.77 778.429 323.6C780.64 323.258 783.704 322.883 787.102 322.636C790.499 322.397 793.59 322.328 795.826 322.354C796.944 322.363 797.849 322.388 798.472 322.431C799.096 322.465 799.437 322.499 799.437 322.533V322.525Z" fill="#455A64"/>
<path d="M800.624 343.88C800.632 344 795.152 344.554 788.374 345.117C781.596 345.68 776.098 346.03 776.09 345.911C776.081 345.791 781.562 345.237 788.34 344.674C795.118 344.111 800.615 343.761 800.624 343.88Z" fill="#455A64"/>
<path d="M802.647 366.336C802.647 366.336 802.348 366.541 801.776 366.831C801.204 367.13 800.359 367.522 799.3 367.966C797.183 368.862 794.17 369.911 790.738 370.688C787.307 371.455 784.131 371.788 781.835 371.873C780.683 371.925 779.752 371.925 779.112 371.899C778.472 371.873 778.113 371.848 778.113 371.822C778.113 371.788 778.472 371.763 779.112 371.728C779.752 371.703 780.674 371.652 781.818 371.558C784.097 371.387 787.238 371.012 790.645 370.252C794.042 369.485 797.047 368.495 799.181 367.676C800.248 367.266 801.11 366.925 801.699 366.678C802.288 366.43 802.63 366.311 802.638 366.336H802.647Z" fill="#455A64"/>
<path d="M817.526 377.846C817.594 377.974 815.349 378.972 813.377 381.173C811.379 383.357 810.62 385.695 810.483 385.636C810.432 385.618 810.551 385.021 810.944 384.108C811.328 383.204 812.028 382.001 813.044 380.875C814.06 379.748 815.187 378.938 816.049 378.46C816.911 377.982 817.5 377.795 817.526 377.846Z" fill="#455A64"/>
<path d="M832.661 392.632C832.55 392.606 833.036 390.524 834.3 388.229C835.555 385.926 837.048 384.398 837.125 384.475C837.228 384.561 835.913 386.19 834.684 388.443C833.446 390.686 832.78 392.674 832.652 392.632H832.661Z" fill="#455A64"/>
<path d="M808.81 309.966C808.836 310.085 806.181 310.665 802.894 311.263C799.608 311.86 796.919 312.244 796.893 312.124C796.868 312.005 799.522 311.425 802.809 310.827C806.095 310.23 808.784 309.846 808.801 309.966H808.81Z" fill="#455A64"/>
<path d="M848.863 311.783C848.846 311.902 845.175 311.57 840.659 311.032C836.144 310.495 832.49 309.966 832.507 309.838C832.524 309.718 836.195 310.051 840.71 310.589C845.226 311.126 848.88 311.655 848.863 311.783Z" fill="#455A64"/>
<path d="M852.286 330.408C852.286 330.408 852.107 330.434 851.765 330.442C851.372 330.442 850.877 330.442 850.263 330.451C848.897 330.451 847.027 330.451 844.74 330.451C840.079 330.451 833.642 330.485 826.532 330.664C819.421 330.852 812.984 331.142 808.332 331.381C806.044 331.5 804.175 331.603 802.817 331.671C802.203 331.697 801.708 331.722 801.315 331.739C800.974 331.748 800.794 331.739 800.786 331.739C800.786 331.722 800.965 331.697 801.306 331.654C801.699 331.611 802.194 331.569 802.8 331.509C804.098 331.389 805.984 331.236 808.306 331.074C812.959 330.75 819.395 330.408 826.514 330.221C833.625 330.041 840.07 330.05 844.74 330.135C847.07 330.178 848.957 330.229 850.263 330.28C850.877 330.306 851.372 330.331 851.765 330.348C852.107 330.374 852.286 330.391 852.286 330.4V330.408Z" fill="#455A64"/>
<path d="M852.781 353.991C852.781 354.11 841.812 354.938 828.264 355.825C814.709 356.721 803.722 357.344 803.714 357.216C803.714 357.096 814.683 356.269 828.23 355.381C841.778 354.494 852.772 353.863 852.781 353.991Z" fill="#455A64"/>
<path d="M851.612 374.766C851.612 374.766 851.296 374.936 850.69 375.158C850.083 375.389 849.204 375.696 848.112 376.054C845.918 376.771 842.862 377.667 839.439 378.494C836.015 379.313 832.883 379.911 830.603 380.26C829.468 380.44 828.538 380.568 827.897 380.636C827.257 380.713 826.899 380.738 826.899 380.704C826.899 380.67 827.24 380.593 827.872 380.465C828.597 380.329 829.494 380.149 830.552 379.945C832.814 379.51 835.93 378.87 839.345 378.051C842.759 377.232 845.824 376.378 848.035 375.747C849.068 375.448 849.947 375.192 850.655 374.988C851.279 374.808 851.62 374.732 851.637 374.757L851.612 374.766Z" fill="#455A64"/>
<path d="M869.171 337.106C869.205 337.225 865.628 338.249 861.198 339.392C856.767 340.536 853.148 341.372 853.114 341.252C853.08 341.133 856.648 340.109 861.087 338.966C865.517 337.822 869.137 336.986 869.171 337.106Z" fill="#455A64"/>
<path d="M860.797 321.168C860.822 321.288 859.235 321.672 857.263 322.03C855.291 322.388 853.669 322.576 853.652 322.456C853.626 322.337 855.214 321.953 857.186 321.595C859.158 321.236 860.771 321.049 860.797 321.168Z" fill="#455A64"/>
<path d="M800.82 326.117C800.735 326.134 800.606 324.7 799.821 322.559C799.061 320.426 797.508 317.585 794.921 315.264C792.335 312.935 789.338 311.698 787.136 311.169C784.917 310.623 783.482 310.64 783.482 310.554C783.482 310.529 783.841 310.503 784.49 310.52C785.138 310.537 786.069 310.623 787.204 310.862C789.466 311.322 792.557 312.542 795.211 314.931C797.866 317.32 799.411 320.264 800.111 322.456C800.47 323.557 800.658 324.479 800.743 325.118C800.828 325.758 800.837 326.117 800.811 326.117H800.82Z" fill="#263238"/>
<path d="M850.681 314.735C850.801 314.718 851.466 318.208 852.158 322.533C852.849 326.859 853.31 330.383 853.191 330.408C853.071 330.425 852.414 326.936 851.714 322.61C851.023 318.284 850.562 314.761 850.681 314.735Z" fill="#263238"/>
<path d="M897.324 440.487C897.324 440.487 929.489 449.386 930.778 449.838C932.716 450.521 932.392 457.62 929.378 457.509C927.953 457.457 904.674 458.379 901.729 458.191C898.784 458.004 889.914 454.514 889.914 454.514L897.324 440.496V440.487Z" fill="#04959E"/>
<path d="M910.718 452.756C910.88 452.782 911.093 451.076 912.135 449.301C913.151 447.509 914.508 446.468 914.405 446.34C914.346 446.212 912.749 447.125 911.665 449.028C910.564 450.922 910.581 452.765 910.718 452.748V452.756Z" fill="#263238"/>
<path d="M907.371 451.238C907.525 451.263 907.858 449.745 908.712 448.064C909.548 446.374 910.581 445.206 910.462 445.095C910.376 444.992 909.113 446.042 908.225 447.816C907.329 449.582 907.226 451.221 907.363 451.229L907.371 451.238Z" fill="#263238"/>
<path d="M904.221 450.393C904.384 450.384 904.256 448.78 904.973 446.997C905.656 445.206 906.834 444.105 906.723 443.994C906.654 443.875 905.22 444.864 904.469 446.801C903.701 448.729 904.085 450.436 904.221 450.393Z" fill="#263238"/>
<path d="M904.793 446.238C904.853 446.255 905.135 445.351 905.135 443.849C905.135 443.098 905.049 442.202 904.81 441.23C904.691 440.743 904.537 440.24 904.332 439.737C904.23 439.481 904.11 439.191 903.82 438.952C903.521 438.679 902.975 438.738 902.719 439.003C902.42 439.259 902.335 439.626 902.292 439.916C902.258 440.214 902.241 440.487 902.249 440.769C902.249 441.324 902.326 441.853 902.446 442.339C902.685 443.32 903.069 444.148 903.436 444.796C904.187 446.101 904.836 446.767 904.879 446.733C904.956 446.682 904.409 445.931 903.769 444.625C903.453 443.968 903.12 443.166 902.924 442.236C902.821 441.776 902.77 441.281 902.77 440.769C902.787 440.274 902.77 439.66 903.069 439.421C903.223 439.293 903.359 439.284 903.496 439.387C903.641 439.498 903.76 439.72 903.846 439.95C904.042 440.428 904.204 440.906 904.332 441.366C904.588 442.288 904.708 443.149 904.759 443.875C904.853 445.334 904.708 446.238 904.793 446.255V446.238Z" fill="#263238"/>
<path d="M904.751 445.914C904.768 445.854 903.991 445.59 902.676 445.581C902.019 445.581 901.242 445.649 900.397 445.863C899.979 445.973 899.535 446.084 899.082 446.349C898.639 446.571 898.178 447.185 898.357 447.816C898.493 448.414 899.006 448.832 899.518 448.968C900.03 449.113 900.525 449.062 900.96 448.968C901.84 448.763 902.531 448.328 903.052 447.944C904.085 447.134 904.588 446.52 904.546 446.477C904.486 446.409 903.88 446.938 902.83 447.637C902.301 447.97 901.643 448.337 900.858 448.49C900.465 448.567 900.047 448.584 899.663 448.473C899.287 448.371 898.971 448.081 898.878 447.705C898.784 447.347 899.006 447.014 899.356 446.81C899.697 446.596 900.124 446.477 900.525 446.357C901.319 446.127 902.062 446.025 902.693 445.982C903.948 445.897 904.742 446.025 904.751 445.939V445.914Z" fill="#263238"/>
<path d="M915.66 453.098C915.822 453.081 915.66 451.707 916.292 450.197C916.898 448.678 917.965 447.808 917.863 447.68C917.811 447.552 916.463 448.311 915.788 449.992C915.097 451.664 915.524 453.149 915.652 453.098H915.66Z" fill="#263238"/>
<path d="M893.218 454.582C893.218 454.582 893.645 454.821 894.464 455.171C895.292 455.487 896.496 455.922 898.041 456.28C901.114 457.056 905.502 457.492 910.325 457.44C915.148 457.389 919.485 457.167 922.634 457.039C924.128 456.963 925.375 456.894 926.365 456.843C927.244 456.783 927.731 456.732 927.731 456.698C927.731 456.664 927.244 456.638 926.356 456.638C925.366 456.638 924.12 456.655 922.626 456.664C919.365 456.724 915.071 456.809 910.325 456.903C905.527 456.954 901.2 456.579 898.135 455.905C895.062 455.273 893.261 454.48 893.227 454.582H893.218Z" fill="#263238"/>
<path d="M892.27 455.316C892.313 455.393 893.192 454.872 894.678 454.224C896.146 453.592 898.348 452.842 900.764 453.209C903.189 453.575 904.904 455.205 906.023 456.34C907.149 457.509 907.807 458.285 907.875 458.234C907.926 458.191 907.371 457.338 906.304 456.084C905.758 455.461 905.075 454.744 904.17 454.087C903.282 453.43 902.13 452.876 900.85 452.68C898.254 452.287 895.975 453.149 894.516 453.874C893.039 454.625 892.236 455.256 892.27 455.307V455.316Z" fill="#263238"/>
<path d="M859.252 433.022C859.252 433.022 828.819 452.936 827.727 453.763C826.088 455 827.966 460.896 830.808 459.872C832.148 459.386 857.689 452.287 860.438 451.221C863.187 450.154 870.579 444.131 870.579 444.131L859.26 433.022H859.252Z" fill="#04959E"/>
<path d="M850.212 448.78C850.348 448.755 849.802 446.997 848.171 445.521C846.558 444.037 844.757 443.653 844.74 443.789C844.68 443.943 846.293 444.523 847.804 445.922C849.332 447.296 850.058 448.849 850.203 448.78H850.212Z" fill="#263238"/>
<path d="M852.952 446.315C853.08 446.264 852.491 444.736 851.099 443.32C849.716 441.895 848.197 441.272 848.146 441.4C848.069 441.537 849.401 442.339 850.715 443.695C852.038 445.035 852.815 446.383 852.952 446.315Z" fill="#263238"/>
<path d="M855.692 444.557C855.829 444.557 855.675 442.817 854.36 441.213C853.063 439.592 851.381 439.08 851.355 439.216C851.287 439.361 852.738 440.052 853.942 441.545C855.163 443.021 855.53 444.591 855.692 444.549V444.557Z" fill="#263238"/>
<path d="M853.882 440.778C853.959 440.735 853.549 439.916 853.191 438.499C853.02 437.791 852.875 436.938 852.832 435.983C852.815 435.505 852.824 435.001 852.866 434.481C852.883 434.234 852.926 433.986 853.029 433.841C853.122 433.705 853.259 433.67 853.447 433.747C853.797 433.884 853.976 434.472 854.138 434.942C854.292 435.428 854.394 435.914 854.437 436.392C854.531 437.339 854.463 438.201 854.36 438.926C854.147 440.368 853.865 441.247 853.95 441.272C854.002 441.289 854.42 440.462 854.736 438.986C854.89 438.252 855 437.348 854.932 436.341C854.898 435.838 854.804 435.309 854.642 434.78C854.565 434.515 854.463 434.251 854.343 433.986C854.215 433.722 854.019 433.406 853.66 433.252C853.336 433.073 852.798 433.184 852.593 433.534C852.388 433.85 852.363 434.165 852.346 434.438C852.303 434.984 852.311 435.505 852.346 436.008C852.414 437.006 852.602 437.885 852.832 438.602C853.293 440.035 853.839 440.803 853.891 440.778H853.882Z" fill="#263238"/>
<path d="M853.822 440.453C853.865 440.53 854.574 440.172 855.803 439.873C856.418 439.728 857.152 439.6 857.98 439.575C858.389 439.575 858.833 439.557 859.226 439.651C859.627 439.745 859.935 439.993 859.952 440.359C859.977 440.743 859.764 441.11 859.439 441.324C859.115 441.545 858.705 441.656 858.304 441.699C857.51 441.793 856.767 441.648 856.161 441.486C854.949 441.136 854.207 440.82 854.172 440.897C854.147 440.948 854.813 441.392 856.042 441.844C856.657 442.057 857.442 442.262 858.347 442.185C858.791 442.143 859.277 442.04 859.721 441.75C860.165 441.469 860.524 440.914 860.472 440.308C860.447 439.651 859.824 439.208 859.337 439.131C858.825 439.02 858.372 439.046 857.937 439.071C857.066 439.122 856.298 439.301 855.675 439.498C854.429 439.907 853.771 440.394 853.797 440.445L853.822 440.453Z" fill="#263238"/>
<path d="M834.684 458.771C834.718 458.823 835.196 458.464 835.426 457.594C835.683 456.741 835.52 455.435 834.855 454.292C834.539 453.712 834.172 453.217 833.839 452.773C833.506 452.33 833.164 451.929 832.806 451.664C832.456 451.391 832.089 451.263 831.833 451.255C831.577 451.246 831.448 451.306 831.448 451.34C831.448 451.425 831.995 451.383 832.558 451.954C832.84 452.227 833.13 452.611 833.437 453.064C833.753 453.516 834.086 454.011 834.385 454.548C835 455.623 835.187 456.732 835.051 457.517C834.94 458.302 834.607 458.72 834.675 458.771H834.684Z" fill="#263238"/>
<path d="M845.61 450.606C845.756 450.623 845.704 449.079 844.535 447.688C843.382 446.289 841.871 445.973 841.854 446.11C841.795 446.255 843.084 446.767 844.117 448.03C845.175 449.275 845.448 450.632 845.602 450.598L845.61 450.606Z" fill="#263238"/>
<path d="M867.447 445.214C867.447 445.214 866.951 445.521 866.106 446.136C865.253 446.724 863.989 447.56 862.35 448.431C860.711 449.309 858.697 450.222 856.392 451.084C854.087 451.946 851.501 452.756 848.769 453.541C843.297 455.12 838.337 456.562 834.761 457.637C833.045 458.166 831.619 458.601 830.535 458.934C829.536 459.249 828.999 459.445 829.007 459.48C829.016 459.514 829.579 459.394 830.595 459.138C831.696 458.848 833.139 458.464 834.872 458.004C838.474 457.022 843.442 455.64 848.931 454.062C851.671 453.268 854.266 452.441 856.58 451.545C858.893 450.649 860.916 449.693 862.547 448.763C864.177 447.833 865.415 446.946 866.243 446.298C867.054 445.632 867.481 445.24 867.455 445.214H867.447Z" fill="#263238"/>
<path d="M868.573 445.615C868.59 445.555 867.626 445.197 865.995 444.933C864.39 444.677 861.949 444.549 859.602 445.718C858.441 446.298 857.51 447.176 856.861 448.064C856.204 448.96 855.76 449.856 855.436 450.606C854.796 452.125 854.531 453.106 854.591 453.132C854.668 453.166 855.06 452.227 855.786 450.768C856.511 449.352 857.655 447.279 859.849 446.195C862.034 445.103 864.365 445.154 865.953 445.308C867.566 445.479 868.565 445.7 868.582 445.615H868.573Z" fill="#263238"/>
<path d="M922.523 383.212C922.523 383.212 931.657 386.472 931.692 396.701C931.768 416.299 892.066 437.911 892.066 437.911L839.234 402.921L835.922 401.582C835.922 401.582 907.235 374.808 922.515 383.204L922.523 383.212Z" fill="#263238"/>
<path d="M866.004 420.599C866.004 420.599 866.516 420.292 867.378 419.669C868.24 419.038 869.478 418.108 870.989 416.939C874.011 414.602 878.126 411.291 882.556 407.494C886.986 403.698 890.879 400.131 893.653 397.495C895.036 396.181 896.146 395.097 896.897 394.338C897.648 393.579 898.05 393.144 898.024 393.118C897.998 393.092 897.546 393.476 896.752 394.185C895.89 394.961 894.755 395.985 893.397 397.213C890.563 399.773 886.636 403.288 882.214 407.085C877.793 410.873 873.721 414.235 870.759 416.641C869.333 417.801 868.155 418.765 867.25 419.499C866.422 420.181 865.978 420.565 866.004 420.599Z" fill="#455A64"/>
<path d="M907.61 390.541C907.627 390.413 905.271 390.183 902.523 391.002C899.765 391.804 897.904 393.28 897.998 393.374C898.084 393.511 900.013 392.29 902.676 391.514C905.331 390.721 907.619 390.704 907.61 390.533V390.541Z" fill="#455A64"/>
<path d="M903.06 387.453C903.009 387.325 901.319 388.067 899.928 389.808C898.519 391.531 898.152 393.348 898.28 393.365C898.434 393.417 899.014 391.77 900.346 390.149C901.661 388.502 903.146 387.598 903.06 387.453Z" fill="#455A64"/>
<path d="M925.434 449.514C925.46 449.455 924.803 449.327 924.069 449.924C923.351 450.495 922.737 451.647 922.541 452.987C922.344 454.335 922.643 455.58 923.019 456.365C923.394 457.167 923.804 457.543 923.847 457.509C923.915 457.457 923.633 457.014 923.369 456.229C923.104 455.452 922.882 454.309 923.07 453.064C923.249 451.835 923.753 450.768 924.316 450.205C924.879 449.617 925.434 449.6 925.426 449.514H925.434Z" fill="#263238"/>
<path d="M918.75 355.373L903.718 395.84C902.856 398.152 900.636 399.671 898.169 399.645L815.443 398.553V392.273L846.14 393.391L859.175 353.001C859.619 351.636 860.891 350.714 862.325 350.714L915.694 350.868C918.016 350.868 919.604 353.214 918.75 355.373Z" fill="#E0E0E0"/>
<path d="M918.75 355.373C918.75 355.373 918.759 355.33 918.785 355.245C918.802 355.159 918.861 355.04 918.887 354.869C918.964 354.537 919.024 354.008 918.853 353.351C918.682 352.711 918.255 351.917 917.402 351.397C916.983 351.141 916.471 350.953 915.899 350.919C915.327 350.893 914.713 350.919 914.064 350.902C908.848 350.902 901.276 350.885 891.801 350.876C887.055 350.868 881.839 350.859 876.205 350.851C873.388 350.851 870.46 350.842 867.438 350.834C865.927 350.834 864.391 350.834 862.837 350.825C862.052 350.783 861.292 350.885 860.635 351.311C859.986 351.721 859.482 352.361 859.269 353.112C855.333 365.33 850.954 378.912 846.276 393.434L846.242 393.528H846.14C836.348 393.169 826.036 392.794 815.443 392.41L815.579 392.273V393.391C815.579 395.157 815.579 396.923 815.579 398.553L815.451 398.416C833.958 398.664 851.526 398.903 867.472 399.116C875.445 399.227 883.008 399.329 890.085 399.423C891.852 399.449 893.594 399.474 895.301 399.491C896.155 399.5 897 399.517 897.836 399.526C898.673 399.56 899.484 399.466 900.243 399.176C901.754 398.621 902.984 397.418 903.556 395.985C904.102 394.517 904.648 393.075 905.169 391.676C909.36 380.44 912.749 371.362 915.088 365.082C916.258 361.959 917.171 359.536 917.794 357.873C918.418 356.226 918.75 355.373 918.75 355.373C918.75 355.373 918.443 356.243 917.846 357.898C917.231 359.562 916.343 361.993 915.191 365.125C912.869 371.413 909.505 380.499 905.348 391.744C904.828 393.152 904.29 394.594 903.743 396.07C903.154 397.555 901.882 398.8 900.32 399.38C899.543 399.679 898.681 399.782 897.845 399.747C897.008 399.739 896.163 399.73 895.309 399.713C893.602 399.696 891.869 399.671 890.094 399.645C883.017 399.56 875.454 399.457 867.481 399.363C851.535 399.159 833.967 398.928 815.46 398.689H815.332V398.553C815.332 396.923 815.332 395.157 815.332 393.391V392.128H815.468C826.062 392.521 836.374 392.896 846.165 393.255L846.037 393.348C850.732 378.827 855.12 365.244 859.064 353.035C859.294 352.241 859.841 351.55 860.532 351.115C861.224 350.663 862.086 350.561 862.854 350.603C864.416 350.603 865.944 350.612 867.455 350.62C870.477 350.629 873.396 350.646 876.222 350.655C881.856 350.68 887.08 350.697 891.818 350.714C901.293 350.757 908.865 350.791 914.081 350.817C914.73 350.825 915.344 350.817 915.925 350.842C916.505 350.876 917.035 351.073 917.461 351.337C918.324 351.875 918.75 352.685 918.921 353.342C919.083 354.008 919.015 354.545 918.93 354.878C918.844 355.211 918.767 355.373 918.767 355.373H918.75Z" fill="#263238"/>
<path d="M882.061 370.679C883.136 369.954 885.117 370.244 886.082 371.106C887.046 371.967 887.362 373.469 886.867 374.663C886.38 375.866 885.143 376.703 883.845 376.771C882.471 376.848 881.037 375.986 880.652 374.663C880.268 373.341 880.695 371.37 882.061 370.67" fill="white"/>
<path d="M900.978 440.121C900.978 440.121 826.421 392.393 823.125 390.516C820.326 388.92 812.839 384.313 805.447 386.352C798.063 388.391 791.438 395.004 788.126 404.679C786.231 410.208 785.343 419.635 784.925 426.708C784.421 435.163 787.042 443.593 792.574 450.009C795.092 452.927 798.199 455.47 801.878 456.613C802.655 456.852 803.466 457.065 804.294 457.244C818.405 460.299 832.908 453.968 840.839 441.912L842.58 439.267C842.58 439.267 891.408 457.193 892.168 456.946L900.969 440.138L900.978 440.121Z" fill="#263238"/>
<path d="M826.975 393.152C826.975 393.152 826.907 393.118 826.788 393.041C826.651 392.947 826.48 392.828 826.267 392.683C825.814 392.367 825.14 391.898 824.252 391.335C822.485 390.209 819.865 388.596 816.331 387.316C814.572 386.685 812.557 386.182 810.364 386.062C808.178 385.968 805.805 386.292 803.509 387.18C801.195 388.042 798.959 389.424 796.919 391.173C795.894 392.052 794.913 393.007 793.991 394.048C793.077 395.089 792.275 396.249 791.566 397.486C790.149 399.961 789.099 402.58 788.348 405.165C787.648 407.767 787.085 410.336 786.547 412.759C785.48 417.622 784.908 422.075 784.831 425.83C784.771 429.592 785.147 432.621 785.506 434.694C785.668 435.735 785.856 436.529 785.966 437.075C786.018 437.322 786.052 437.527 786.086 437.697C786.112 437.834 786.12 437.911 786.112 437.911C786.112 437.911 786.077 437.843 786.043 437.706C786.001 437.544 785.949 437.339 785.881 437.1C785.745 436.563 785.531 435.769 785.335 434.728C784.925 432.664 784.49 429.618 784.515 425.83C784.549 422.05 785.096 417.554 786.146 412.673C786.675 410.233 787.221 407.682 787.93 405.046C788.681 402.426 789.74 399.782 791.182 397.265C791.899 396.01 792.719 394.824 793.658 393.749C794.597 392.691 795.596 391.727 796.637 390.84C798.711 389.065 800.999 387.666 803.364 386.796C805.72 385.9 808.144 385.584 810.389 385.695C812.626 385.832 814.666 386.369 816.441 387.026C819.993 388.366 822.605 390.021 824.346 391.198C825.217 391.787 825.874 392.282 826.318 392.623C826.523 392.785 826.685 392.913 826.813 393.016C826.924 393.11 826.975 393.152 826.975 393.161V393.152Z" fill="#455A64"/>
<path d="M808.639 426.649C808.639 426.649 808.776 426.717 809.049 426.828C809.348 426.947 809.749 427.109 810.27 427.314C811.371 427.741 812.959 428.346 814.999 429.131C819.148 430.693 825.14 432.954 832.584 435.752C840.053 438.534 848.999 441.853 859.038 445.504C869.077 449.147 880.208 453.157 892.091 457.176L892.305 457.253L892.407 457.048C894.276 453.49 896.24 449.728 898.237 445.914C899.253 443.968 900.269 442.04 901.208 440.24L901.319 440.018L901.114 439.89C878.698 425.667 858.646 412.946 844.176 403.766C836.954 399.21 831.124 395.533 827.078 392.982C825.072 391.736 823.518 390.755 822.434 390.081C821.913 389.765 821.512 389.518 821.222 389.338C820.949 389.176 820.804 389.1 820.804 389.1C820.804 389.1 820.932 389.202 821.196 389.381C821.478 389.569 821.879 389.833 822.383 390.166C823.45 390.857 824.995 391.864 826.975 393.144C830.996 395.729 836.801 399.449 843.989 404.065C858.432 413.279 878.459 426.051 900.832 440.325L900.739 439.976C899.791 441.776 898.784 443.704 897.768 445.649C895.77 449.463 893.807 453.217 891.938 456.783L892.262 456.655C880.388 452.645 869.256 448.661 859.2 445.043C849.17 441.392 840.207 438.133 832.703 435.402C825.234 432.664 819.224 430.462 815.059 428.935C813.001 428.184 811.405 427.604 810.295 427.203C809.766 427.015 809.356 426.87 809.057 426.768C808.776 426.674 808.631 426.632 808.631 426.632L808.639 426.649Z" fill="#455A64"/>
<path d="M812.498 268.296C811.2 265.736 809.886 263.159 809.186 260.378C808.486 257.597 808.443 254.559 809.629 251.948C810.321 250.421 811.414 249.082 811.96 247.495C812.711 245.311 812.404 242.734 813.753 240.865C815.87 237.939 820.385 238.622 823.655 237.094C826.199 235.9 827.974 233.332 830.655 232.47C832.994 231.719 835.546 232.436 837.8 233.409C840.053 234.373 842.256 235.601 844.697 235.925C846.43 236.156 848.197 235.9 849.947 235.943C851.697 235.977 853.558 236.369 854.787 237.606C856.016 238.852 856.281 241.147 854.941 242.273C858.005 241.753 860.891 244.807 860.848 247.913C860.805 251.018 858.466 253.749 855.641 255.037C852.815 256.325 849.588 256.411 846.498 256.172C837.731 255.489 828.922 252.162 822.955 245.703" fill="#04959E"/>
<path d="M814.384 257.332L808.409 300.717C807.393 308.097 812.762 314.82 820.18 315.469C827.103 316.075 833.292 311.135 834.231 304.249C834.675 300.982 835.059 298.26 835.128 297.927C835.128 297.927 846.319 298.405 848.624 287.586C849.734 282.356 851.151 271.401 852.32 261.47C853.575 250.805 846.404 240.976 835.87 238.869L834.82 238.656C823.399 237.06 815.656 245.865 814.376 257.324L814.384 257.332Z" fill="#FFBE9D"/>
<path d="M835.179 297.774C835.179 297.774 828.205 296.963 821.837 290.931C821.837 290.931 823.621 299.403 834.65 300.589L835.188 297.774H835.179Z" fill="#EB996E"/>
<path d="M847.454 270.693C847.318 271.521 846.507 272.084 845.645 271.956C844.782 271.828 844.193 271.06 844.33 270.241C844.467 269.413 845.278 268.85 846.14 268.978C847.002 269.106 847.591 269.874 847.463 270.693H847.454Z" fill="#263238"/>
<path d="M848.923 266.333C848.692 266.495 847.693 265.395 846.02 265.062C844.356 264.712 842.964 265.327 842.819 265.079C842.751 264.968 843.015 264.644 843.63 264.362C844.236 264.081 845.201 263.885 846.242 264.098C847.284 264.311 848.077 264.866 848.504 265.361C848.94 265.856 849.042 266.257 848.923 266.325V266.333Z" fill="#263238"/>
<path d="M831.892 268.014C831.756 268.842 830.945 269.405 830.083 269.277C829.221 269.149 828.632 268.381 828.768 267.562C828.905 266.734 829.716 266.171 830.578 266.299C831.44 266.427 832.029 267.195 831.901 268.014H831.892Z" fill="#263238"/>
<path d="M832.464 263.364C832.234 263.526 831.227 262.426 829.562 262.093C827.897 261.743 826.506 262.357 826.361 262.11C826.293 261.999 826.557 261.675 827.172 261.393C827.769 261.112 828.742 260.916 829.784 261.129C830.825 261.342 831.619 261.897 832.046 262.392C832.481 262.886 832.584 263.287 832.464 263.356V263.364Z" fill="#263238"/>
<path d="M836.05 276.939C836.058 276.845 837.134 276.87 838.858 276.99C839.293 277.032 839.712 277.024 839.84 276.751C840.002 276.461 839.917 275.966 839.806 275.428C839.609 274.319 839.404 273.159 839.191 271.939C838.363 266.973 837.859 262.929 838.056 262.895C838.252 262.861 839.089 266.862 839.917 271.828C840.113 273.048 840.292 274.217 840.472 275.326C840.54 275.838 840.702 276.444 840.361 277.041C840.181 277.34 839.823 277.502 839.532 277.527C839.242 277.553 839.003 277.51 838.79 277.485C837.083 277.237 836.033 277.032 836.041 276.939H836.05Z" fill="#263238"/>
<path d="M830.911 277.109C831.184 277.143 830.825 278.961 832.123 280.548C833.412 282.143 835.384 282.331 835.35 282.587C835.35 282.706 834.846 282.851 834.027 282.715C833.224 282.587 832.106 282.092 831.312 281.119C830.527 280.147 830.33 279.012 830.416 278.252C830.501 277.485 830.791 277.075 830.911 277.109Z" fill="#263238"/>
<path d="M834.206 256.923C833.95 257.341 832.328 256.795 830.322 256.641C828.324 256.445 826.625 256.701 826.446 256.249C826.369 256.027 826.728 255.66 827.453 255.344C828.171 255.028 829.263 254.815 830.467 254.918C831.67 255.02 832.703 255.429 833.361 255.856C834.018 256.291 834.308 256.718 834.197 256.914L834.206 256.923Z" fill="#04959E"/>
<path d="M849.273 261.385C848.906 261.709 847.83 261.086 846.456 260.788C845.09 260.446 843.852 260.532 843.664 260.079C843.587 259.866 843.843 259.525 844.424 259.269C844.996 259.013 845.901 258.885 846.84 259.107C847.779 259.329 848.538 259.832 848.94 260.318C849.349 260.805 849.435 261.223 849.264 261.385H849.273Z" fill="#04959E"/>
<path d="M813.667 265.54C813.496 265.42 806.65 261.845 805.404 269.311C804.158 276.776 811.909 276.486 811.96 276.273C812.011 276.06 813.667 265.54 813.667 265.54Z" fill="#FFBE9D"/>
<path d="M810.15 273.065C810.15 273.065 810.005 273.133 809.766 273.202C809.536 273.261 809.151 273.27 808.793 273.056C808.05 272.638 807.598 271.273 807.786 269.925C807.879 269.243 808.127 268.62 808.46 268.125C808.776 267.613 809.194 267.297 809.604 267.289C810.014 267.263 810.253 267.545 810.312 267.775C810.381 267.997 810.312 268.142 810.346 268.159C810.364 268.185 810.526 268.057 810.517 267.741C810.517 267.588 810.449 267.4 810.304 267.221C810.15 267.041 809.894 266.931 809.612 266.913C809.032 266.854 808.426 267.297 808.059 267.843C807.666 268.381 807.367 269.081 807.265 269.848C807.06 271.359 807.598 272.894 808.622 273.389C809.126 273.611 809.587 273.526 809.843 273.389C810.107 273.244 810.176 273.082 810.15 273.065Z" fill="#EB996E"/>
<path d="M854.471 251.394C853.191 254.15 846.601 255.216 841.769 253.757C837.313 252.418 835.7 249.585 832.866 247.128C831.67 246.087 830.097 245.467 828.145 245.268C825.78 245.02 823.885 247.375 822.093 248.945C823.091 254.875 820.445 260.753 817.876 266.188C817.594 266.785 817.27 267.434 816.672 267.724C815.656 268.227 814.452 267.434 813.846 266.478C812.882 264.951 812.762 263.049 812.796 261.24C812.882 257.127 813.599 252.989 815.272 249.227C816.945 245.464 819.6 242.086 823.083 239.884C827.428 237.128 832.9 236.344 837.936 237.427C842.964 238.511 847.54 241.394 850.954 245.242C852.542 247.026 853.925 249.073 854.463 251.402" fill="#04959E"/>
<path d="M839.276 269.439C839.345 269.439 839.319 268.799 839.618 267.707C839.917 266.64 840.642 265.071 842.264 263.868C843.826 262.665 846.396 261.991 848.871 262.921C850.092 263.364 851.262 264.2 852.09 265.352C852.943 266.487 853.421 267.946 853.43 269.447C853.413 270.949 852.935 272.408 852.09 273.543C851.262 274.695 850.101 275.531 848.871 275.974C846.387 276.904 843.826 276.23 842.264 275.027C840.651 273.824 839.917 272.263 839.618 271.188C839.319 270.096 839.345 269.447 839.276 269.456C839.259 269.456 839.242 269.618 839.242 269.917C839.234 270.224 839.268 270.676 839.387 271.248C839.618 272.374 840.318 274.046 842 275.369C843.621 276.691 846.362 277.476 849.059 276.503C850.382 276.043 851.654 275.147 852.559 273.901C853.49 272.673 854.019 271.086 854.027 269.456C854.01 267.826 853.49 266.239 852.559 265.011C851.654 263.765 850.382 262.878 849.059 262.409C846.362 261.436 843.621 262.221 842 263.543C840.318 264.866 839.618 266.538 839.387 267.664C839.259 268.236 839.225 268.688 839.234 268.995C839.234 269.302 839.251 269.456 839.268 269.456L839.276 269.439Z" fill="#263238"/>
<path d="M821.563 266.35C821.632 266.35 821.606 265.71 821.905 264.618C822.204 263.552 822.929 261.982 824.551 260.779C826.113 259.576 828.683 258.902 831.158 259.832C832.379 260.276 833.549 261.112 834.377 262.264C835.23 263.398 835.708 264.857 835.717 266.359C835.7 267.861 835.222 269.32 834.377 270.454C833.549 271.606 832.388 272.442 831.158 272.886C828.674 273.816 826.113 273.142 824.551 271.939C822.938 270.736 822.204 269.174 821.905 268.099C821.606 267.007 821.632 266.359 821.563 266.367C821.546 266.367 821.529 266.53 821.529 266.828C821.521 267.135 821.555 267.588 821.683 268.159C821.913 269.285 822.613 270.958 824.295 272.28C825.917 273.603 828.657 274.387 831.355 273.415C832.678 272.954 833.95 272.058 834.855 270.813C835.785 269.584 836.314 267.997 836.323 266.367C836.306 264.738 835.785 263.151 834.855 261.922C833.95 260.677 832.678 259.789 831.355 259.32C828.657 258.347 825.917 259.132 824.295 260.455C822.613 261.777 821.913 263.45 821.683 264.576C821.555 265.147 821.521 265.6 821.529 265.907C821.529 266.214 821.546 266.367 821.563 266.367V266.35Z" fill="#263238"/>
<path d="M836.161 266.598C836.237 266.751 837.185 266.308 838.286 266.64C839.396 266.965 839.942 267.861 840.087 267.775C840.156 267.741 840.121 267.46 839.874 267.084C839.635 266.709 839.14 266.265 838.465 266.06C837.791 265.856 837.134 265.958 836.724 266.137C836.306 266.316 836.126 266.53 836.161 266.598Z" fill="#263238"/>
<path d="M811.533 264.439C811.533 264.61 813.915 264.704 816.851 264.67C819.788 264.627 822.161 264.456 822.161 264.294C822.161 264.132 819.779 264.03 816.843 264.064C813.906 264.106 811.533 264.277 811.533 264.439Z" fill="#263238"/>
<path d="M857.954 244.27C857.954 244.27 857.971 244.534 857.843 244.978C857.715 245.422 857.365 246.044 856.725 246.582C856.093 247.136 855.137 247.563 854.036 247.682C852.935 247.819 851.722 247.682 850.476 247.495C847.975 247.128 845.738 246.633 844.142 246.215C843.34 246.01 842.699 245.823 842.256 245.686C842.076 245.626 841.906 245.575 841.752 245.524C841.632 245.481 841.573 245.464 841.581 245.456C841.581 245.456 841.65 245.456 841.761 245.49C841.923 245.532 842.093 245.575 842.273 245.618C842.819 245.754 843.451 245.908 844.168 246.087C845.773 246.471 848.009 246.949 850.502 247.316C851.748 247.503 852.943 247.64 854.019 247.512C855.094 247.401 856.016 247 856.639 246.479C857.271 245.968 857.63 245.379 857.775 244.944C857.929 244.509 857.937 244.253 857.954 244.253V244.27Z" fill="white"/>
<path d="M859.61 245.968C859.61 245.968 859.533 246.804 858.97 248.007C858.424 249.201 857.297 250.763 855.53 251.812C853.771 252.861 851.859 253.117 850.544 253.032C849.213 252.955 848.444 252.631 848.444 252.631C848.444 252.614 848.649 252.665 849.008 252.742C849.366 252.819 849.896 252.896 850.553 252.913C851.851 252.964 853.72 252.691 855.444 251.667C857.169 250.635 858.287 249.124 858.859 247.955C859.149 247.367 859.328 246.863 859.439 246.514C859.55 246.164 859.593 245.968 859.61 245.968Z" fill="white"/>
</g>
<defs>
<clipPath id="clip0_78_645">
<rect width="599" height="368" fill="white" transform="translate(401 92)"/>
</clipPath>
</defs>
</svg>
